EESchema Schematic File Version 4
EELAYER 30 0
EELAYER END
$Descr A3 16535 11693
encoding utf-8
Sheet 1 1
Title "phoniebox pin out"
Date "2020-06-10"
Rev "0.1"
Comp ""
Comment1 ""
Comment2 ""
Comment3 ""
Comment4 ""
$EndDescr
Text Notes 500  700  0    50   ~ 0
HIFIBERRY MINIAMP\nGPIOs 18-21 (pins 12, 35, 38 and 40) are used for the sound interface. GPIO16 can be used to mute the power stage. GPIO26 shuts down the power stage. You can’t use these GPIOs for any other purpose.
Wire Notes Line
	7850 2300 7800 2300
Wire Notes Line
	7800 2300 7800 1800
Wire Notes Line
	7800 1800 7850 1800
Wire Wire Line
	8100 1700 8000 1700
Wire Wire Line
	8100 2900 8000 2900
Text Notes 7800 2250 1    50   ~ 0
hifiberry
Wire Wire Line
	8000 2500 8100 2500
Wire Wire Line
	8100 2600 8000 2600
Wire Wire Line
	8100 3000 8000 3000
Wire Wire Line
	9700 1700 9800 1700
Wire Wire Line
	9700 1800 9800 1800
$Comp
L power:GND #PWR041
U 1 1 5EE0A77B
P 8500 3700
F 0 "#PWR041" H 8500 3450 50  0001 C CNN
F 1 "GND" H 8505 3527 50  0000 C CNN
F 2 "" H 8500 3700 50  0001 C CNN
F 3 "" H 8500 3700 50  0001 C CNN
	1    8500 3700
	1    0    0    -1  
$EndComp
Wire Wire Line
	8500 3600 8500 3650
Wire Wire Line
	8500 3650 8600 3650
Wire Wire Line
	9200 3650 9200 3600
Connection ~ 8500 3650
Wire Wire Line
	8500 3650 8500 3700
Wire Wire Line
	9100 3600 9100 3650
Connection ~ 9100 3650
Wire Wire Line
	9100 3650 9200 3650
Wire Wire Line
	9000 3600 9000 3650
Connection ~ 9000 3650
Wire Wire Line
	9000 3650 9100 3650
Wire Wire Line
	8900 3600 8900 3650
Connection ~ 8900 3650
Wire Wire Line
	8900 3650 9000 3650
Wire Wire Line
	8800 3600 8800 3650
Connection ~ 8800 3650
Wire Wire Line
	8800 3650 8900 3650
Wire Wire Line
	8700 3600 8700 3650
Connection ~ 8700 3650
Wire Wire Line
	8700 3650 8800 3650
Wire Wire Line
	8600 3600 8600 3650
Connection ~ 8600 3650
Wire Wire Line
	8600 3650 8700 3650
Wire Wire Line
	8700 1000 8700 950 
Wire Wire Line
	8700 950  8800 950 
Wire Wire Line
	8800 950  8800 1000
Wire Wire Line
	9000 1000 9000 950 
Wire Wire Line
	9000 950  9100 950 
Wire Wire Line
	9100 950  9100 1000
Wire Wire Line
	8700 950  8700 900 
Connection ~ 8700 950 
Wire Wire Line
	9000 950  9000 900 
Connection ~ 9000 950 
$Comp
L power:+3.3V #PWR043
U 1 1 5EE0F67D
P 9000 900
F 0 "#PWR043" H 9000 750 50  0001 C CNN
F 1 "+3.3V" H 9015 1073 50  0000 C CNN
F 2 "" H 9000 900 50  0001 C CNN
F 3 "" H 9000 900 50  0001 C CNN
	1    9000 900 
	1    0    0    -1  
$EndComp
$Comp
L power:+5V #PWR042
U 1 1 5EE103F1
P 8700 900
F 0 "#PWR042" H 8700 750 50  0001 C CNN
F 1 "+5V" H 8715 1073 50  0000 C CNN
F 2 "" H 8700 900 50  0001 C CNN
F 3 "" H 8700 900 50  0001 C CNN
	1    8700 900 
	1    0    0    -1  
$EndComp
Wire Wire Line
	8100 1800 8000 1800
Wire Wire Line
	9700 2000 9800 2000
$Comp
L Connector:USB_B_Micro J1
U 1 1 5EE1A162
P 900 2350
F 0 "J1" H 957 2817 50  0000 C CNN
F 1 "USB_B_Micro" H 957 2726 50  0000 C CNN
F 2 "Connector_USB:USB_Mini-B_Lumberg_2486_01_Horizontal" H 1050 2300 50  0001 C CNN
F 3 "https://www.reichelt.de/index.html?ACTION=7&LA=3&OPEN=0&INDEX=0&FILENAME=C160%2FDS_2486_01.pdf" H 1050 2300 50  0001 C CNN
F 4 "Reichelt" H 900 2350 50  0001 C CNN "Distributor"
F 5 "Lumberg" H 900 2350 50  0001 C CNN "MF"
F 6 "2486 01" H 900 2350 50  0001 C CNN "MPN"
F 7 "LUM 2486-01" H 900 2350 50  0001 C CNN "Ordercode"
	1    900  2350
	1    0    0    -1  
$EndComp
$Comp
L power:GND #PWR02
U 1 1 5EE1C1BA
P 900 2850
F 0 "#PWR02" H 900 2600 50  0001 C CNN
F 1 "GND" H 905 2677 50  0000 C CNN
F 2 "" H 900 2850 50  0001 C CNN
F 3 "" H 900 2850 50  0001 C CNN
	1    900  2850
	1    0    0    -1  
$EndComp
Wire Wire Line
	900  2750 900  2800
Wire Wire Line
	800  2750 800  2800
Wire Wire Line
	800  2800 900  2800
Connection ~ 900  2800
Wire Wire Line
	900  2800 900  2850
$Comp
L Device:Q_PMOS_DGS Q1
U 1 1 5EE1E618
P 1550 2050
F 0 "Q1" V 1799 2050 50  0000 C CNN
F 1 "SSM3J328R" V 1890 2050 50  0000 C CNN
F 2 "Package_TO_SOT_SMD:SOT-23" H 1750 2150 50  0001 C CNN
F 3 "https://www.reichelt.de/index.html?ACTION=7&LA=3&OPEN=0&INDEX=0&FILENAME=A200%2FTSM650P02CX.pdf" H 1550 2050 50  0001 C CNN
F 4 "Reichelt" H 1550 2050 50  0001 C CNN "Distributor"
F 5 "TAIWAN-SEMICONDUCTORS" H 1550 2050 50  0001 C CNN "MF"
F 6 "TSM650P02CX RFG" H 1550 2050 50  0001 C CNN "MPN"
F 7 "TSM650P02CX" H 1550 2050 50  0001 C CNN "Ordercode"
	1    1550 2050
	0    1    1    0   
$EndComp
$Comp
L Device:R R1
U 1 1 5EE23ABE
P 1300 1800
F 0 "R1" V 1093 1800 50  0000 C CNN
F 1 "100k" V 1184 1800 50  0000 C CNN
F 2 "Resistor_SMD:R_0603_1608Metric_Pad1.05x0.95mm_HandSolder" V 1230 1800 50  0001 C CNN
F 3 "https://www.reichelt.de/index.html?ACTION=7&LA=3&OPEN=0&INDEX=0&FILENAME=B300%2F800736_ENG_TDS.pdf" H 1300 1800 50  0001 C CNN
F 4 "Reichelt" H 1300 1800 50  0001 C CNN "Distributor"
F 5 "PANASONIC" H 1300 1800 50  0001 C CNN "MF"
F 6 "ERJ3EKF1003V" H 1300 1800 50  0001 C CNN "MPN"
F 7 "PAN ERJ3EKF1003" H 1300 1800 50  0001 C CNN "Ordercode"
	1    1300 1800
	1    0    0    -1  
$EndComp
$Comp
L Device:R R6
U 1 1 5EE2485A
P 3550 1800
F 0 "R6" V 3343 1800 50  0000 C CNN
F 1 "10M" V 3434 1800 50  0000 C CNN
F 2 "Resistor_SMD:R_0603_1608Metric_Pad1.05x0.95mm_HandSolder" V 3480 1800 50  0001 C CNN
F 3 "https://www.reichelt.de/index.html?ACTION=7&LA=3&OPEN=0&INDEX=0&FILENAME=A300%2FRND_SMD_RESISTORS_ENG_TDS.pdf" H 3550 1800 50  0001 C CNN
F 4 "Reichelt" H 3550 1800 50  0001 C CNN "Distributor"
F 5 "RND COMPONENTS" H 3550 1800 50  0001 C CNN "MF"
F 6 "RND1550603SAF1005T5E" H 3550 1800 50  0001 C CNN "MPN"
F 7 "RND 0603 1 10M" H 3550 1800 50  0001 C CNN "Ordercode"
	1    3550 1800
	0    1    1    0   
$EndComp
Wire Wire Line
	1550 1850 1550 1750
Wire Wire Line
	1550 1750 1600 1750
$Comp
L Device:D D2
U 1 1 5EE38A90
P 2500 1750
F 0 "D2" H 2500 1967 50  0000 C CNN
F 1 "NSR0530HT1G" H 2500 1876 50  0000 C CNN
F 2 "Diode_SMD:D_SOD-323_HandSoldering" H 2500 1750 50  0001 C CNN
F 3 "https://www.reichelt.de/index.html?ACTION=7&LA=3&OPEN=0&INDEX=0&FILENAME=A400%2FBAT42WS_BAT43WS_TSC.pdf" H 2500 1750 50  0001 C CNN
F 4 "Reichelt" H 2500 1750 50  0001 C CNN "Distributor"
F 5 "LUNSURE" H 2500 1750 50  0001 C CNN "MF"
F 6 "BAT43WS" H 2500 1750 50  0001 C CNN "MPN"
F 7 "BAT 43WS" H 2500 1750 50  0001 C CNN "Ordercode"
	1    2500 1750
	1    0    0    -1  
$EndComp
$Comp
L power:+5V #PWR06
U 1 1 5EE39918
P 2650 1750
F 0 "#PWR06" H 2650 1600 50  0001 C CNN
F 1 "+5V" V 2665 1878 50  0000 L CNN
F 2 "" H 2650 1750 50  0001 C CNN
F 3 "" H 2650 1750 50  0001 C CNN
	1    2650 1750
	0    1    1    0   
$EndComp
Wire Wire Line
	2350 1750 2300 1750
Wire Wire Line
	3700 1800 3750 1800
Wire Wire Line
	3750 1800 3750 1750
$Comp
L power:+3.3V #PWR013
U 1 1 5EE4B73A
P 3400 1800
F 0 "#PWR013" H 3400 1650 50  0001 C CNN
F 1 "+3.3V" V 3415 1928 50  0000 L CNN
F 2 "" H 3400 1800 50  0001 C CNN
F 3 "" H 3400 1800 50  0001 C CNN
	1    3400 1800
	0    -1   -1   0   
$EndComp
$Comp
L power:+5V #PWR04
U 1 1 5EE51AE1
P 1800 2150
F 0 "#PWR04" H 1800 2000 50  0001 C CNN
F 1 "+5V" V 1815 2278 50  0000 L CNN
F 2 "" H 1800 2150 50  0001 C CNN
F 3 "" H 1800 2150 50  0001 C CNN
	1    1800 2150
	0    1    1    0   
$EndComp
Wire Wire Line
	1900 1750 1950 1750
Wire Wire Line
	1950 1750 1950 1900
Wire Wire Line
	1950 1900 2000 1900
Connection ~ 1950 1750
Wire Wire Line
	1950 1750 2000 1750
Text Notes 550  950  0    50   ~ 0
https://user-images.githubusercontent.com/1746967/51612494-7a6b3300-1f19-11e9-8e03-e7aa7677ebba.png
Wire Wire Line
	3750 2200 3750 2150
Wire Wire Line
	3750 1850 3750 1800
Connection ~ 3750 1800
$Comp
L 74xGxx:74AHC1G125 U1
U 1 1 5EE695B3
P 2850 2550
F 0 "U1" H 2825 2375 50  0000 R CNN
F 1 "74AHC1G125" H 2825 2284 50  0000 R CNN
F 2 "Package_TO_SOT_SMD:SOT-23-5_HandSoldering" H 2850 2550 50  0001 C CNN
F 3 "http://www.ti.com/lit/sg/scyt129e/scyt129e.pdf" H 2850 2550 50  0001 C CNN
F 4 "Reichelt" H 2850 2550 50  0001 C CNN "Distributor"
F 5 "TEXAS INSTRUMENTS" H 2850 2550 50  0001 C CNN "MF"
F 6 "SN74AHC1G125DBVR" H 2850 2550 50  0001 C CNN "MPN"
F 7 "SN 74AHC1G125DBV" H 2850 2550 50  0001 C CNN "Ordercode"
	1    2850 2550
	1    0    0    -1  
$EndComp
$Comp
L power:GND #PWR09
U 1 1 5EE6E2BE
P 2900 2600
F 0 "#PWR09" H 2900 2350 50  0001 C CNN
F 1 "GND" H 2905 2427 50  0000 L BNN
F 2 "" H 2900 2600 50  0001 C CNN
F 3 "" H 2900 2600 50  0001 C CNN
	1    2900 2600
	1    0    0    -1  
$EndComp
$Comp
L power:GND #PWR07
U 1 1 5EE6F2DD
P 2850 2350
F 0 "#PWR07" H 2850 2100 50  0001 C CNN
F 1 "GND" H 2855 2177 50  0000 C CNN
F 2 "" H 2850 2350 50  0001 C CNN
F 3 "" H 2850 2350 50  0001 C CNN
	1    2850 2350
	-1   0    0    1   
$EndComp
Wire Wire Line
	3100 2550 3150 2550
Wire Notes Line
	650  3150 650  1100
Text Notes 700  1200 0    50   ~ 0
OnOff Shim
$Comp
L Device:LED D1
U 1 1 5EE1DA5A
P 1600 3050
F 0 "D1" H 1593 2795 50  0000 C CNN
F 1 "LED" H 1593 2886 50  0000 C CNN
F 2 "LED_SMD:LED_0603_1608Metric_Pad1.05x0.95mm_HandSolder" H 1600 3050 50  0001 C CNN
F 3 "https://www.reichelt.de/index.html?ACTION=7&LA=3&OPEN=0&INDEX=0&FILENAME=C500%2FRND+135-00182_ENG_TDS.pdf" H 1600 3050 50  0001 C CNN
F 4 "Reichelt" H 1600 3050 50  0001 C CNN "Distributor"
F 5 "RND COMPONENTS" H 1600 3050 50  0001 C CNN "MF"
F 6 "RND 135-00182" H 1600 3050 50  0001 C CNN "MPN"
F 7 "RND 135-00182" H 1600 3050 50  0001 C CNN "Ordercode"
	1    1600 3050
	-1   0    0    1   
$EndComp
$Comp
L power:+3.3V #PWR03
U 1 1 5EE1EEFD
P 1350 3050
F 0 "#PWR03" H 1350 2900 50  0001 C CNN
F 1 "+3.3V" V 1365 3178 50  0000 L CNN
F 2 "" H 1350 3050 50  0001 C CNN
F 3 "" H 1350 3050 50  0001 C CNN
	1    1350 3050
	0    -1   -1   0   
$EndComp
$Comp
L Switch:SW_Push SW1
U 1 1 5EE241EF
P 1000 3750
F 0 "SW1" H 1000 4035 50  0000 C CNN
F 1 "SW_Push" H 1000 3944 50  0000 C CNN
F 2 "Button_Switch_SMD:SW_Push_1P1T_NO_CK_KMR2" H 1000 3950 50  0001 C CNN
F 3 "https://www.reichelt.de/index.html?ACTION=7&LA=3&OPEN=0&INDEX=0&FILENAME=C200%2FKMR2SERIES.pdf" H 1000 3950 50  0001 C CNN
F 4 "Reichelt" H 1000 3750 50  0001 C CNN "Distributor"
F 5 "CKCOMP" H 1000 3750 50  0001 C CNN "MF"
F 6 "KMR231G LFS" H 1000 3750 50  0001 C CNN "MPN"
F 7 "KMR 231 G LFS" H 1000 3750 50  0001 C CNN "Ordercode"
	1    1000 3750
	1    0    0    -1  
$EndComp
$Comp
L Switch:SW_Push SW3
U 1 1 5EE2618E
P 1000 4550
F 0 "SW3" H 1000 4835 50  0000 C CNN
F 1 "SW_Push" H 1000 4744 50  0000 C CNN
F 2 "Button_Switch_SMD:SW_Push_1P1T_NO_CK_KMR2" H 1000 4750 50  0001 C CNN
F 3 "https://www.reichelt.de/index.html?ACTION=7&LA=3&OPEN=0&INDEX=0&FILENAME=C200%2FKMR2SERIES.pdf" H 1000 4750 50  0001 C CNN
F 4 "Reichelt" H 1000 4550 50  0001 C CNN "Distributor"
F 5 "CKCOMP" H 1000 4550 50  0001 C CNN "MF"
F 6 "KMR231G LFS" H 1000 4550 50  0001 C CNN "MPN"
F 7 "KMR 231 G LFS" H 1000 4550 50  0001 C CNN "Ordercode"
	1    1000 4550
	1    0    0    -1  
$EndComp
$Comp
L Switch:SW_Push SW4
U 1 1 5EE2693E
P 1000 4950
F 0 "SW4" H 1000 5235 50  0000 C CNN
F 1 "SW_Push" H 1000 5144 50  0000 C CNN
F 2 "Button_Switch_SMD:SW_Push_1P1T_NO_CK_KMR2" H 1000 5150 50  0001 C CNN
F 3 "https://www.reichelt.de/index.html?ACTION=7&LA=3&OPEN=0&INDEX=0&FILENAME=C200%2FKMR2SERIES.pdf" H 1000 5150 50  0001 C CNN
F 4 "Reichelt" H 1000 4950 50  0001 C CNN "Distributor"
F 5 "CKCOMP" H 1000 4950 50  0001 C CNN "MF"
F 6 "KMR231G LFS" H 1000 4950 50  0001 C CNN "MPN"
F 7 "KMR 231 G LFS" H 1000 4950 50  0001 C CNN "Ordercode"
	1    1000 4950
	1    0    0    -1  
$EndComp
$Comp
L Switch:SW_Push SW5
U 1 1 5EE27049
P 1000 5350
F 0 "SW5" H 1000 5635 50  0000 C CNN
F 1 "SW_Push" H 1000 5544 50  0000 C CNN
F 2 "Button_Switch_SMD:SW_Push_1P1T_NO_CK_KMR2" H 1000 5550 50  0001 C CNN
F 3 "https://www.reichelt.de/index.html?ACTION=7&LA=3&OPEN=0&INDEX=0&FILENAME=C200%2FKMR2SERIES.pdf" H 1000 5550 50  0001 C CNN
F 4 "Reichelt" H 1000 5350 50  0001 C CNN "Distributor"
F 5 "CKCOMP" H 1000 5350 50  0001 C CNN "MF"
F 6 "KMR231G LFS" H 1000 5350 50  0001 C CNN "MPN"
F 7 "KMR 231 G LFS" H 1000 5350 50  0001 C CNN "Ordercode"
	1    1000 5350
	1    0    0    -1  
$EndComp
$Comp
L Switch:SW_Push SW6
U 1 1 5EE289C9
P 1000 5750
F 0 "SW6" H 1000 6035 50  0000 C CNN
F 1 "SW_Push" H 1000 5944 50  0000 C CNN
F 2 "Button_Switch_SMD:SW_Push_1P1T_NO_CK_KMR2" H 1000 5950 50  0001 C CNN
F 3 "https://www.reichelt.de/index.html?ACTION=7&LA=3&OPEN=0&INDEX=0&FILENAME=C200%2FKMR2SERIES.pdf" H 1000 5950 50  0001 C CNN
F 4 "Reichelt" H 1000 5750 50  0001 C CNN "Distributor"
F 5 "CKCOMP" H 1000 5750 50  0001 C CNN "MF"
F 6 "KMR231G LFS" H 1000 5750 50  0001 C CNN "MPN"
F 7 "KMR 231 G LFS" H 1000 5750 50  0001 C CNN "Ordercode"
	1    1000 5750
	1    0    0    -1  
$EndComp
$Comp
L Connector:Conn_01x04_Male J3
U 1 1 5EE2C838
P 4650 3350
F 0 "J3" H 4758 3631 50  0000 C CNN
F 1 "Conn_01x04_Male" H 4758 3540 50  0000 C CNN
F 2 "Connector_PinHeader_2.54mm:PinHeader_1x04_P2.54mm_Vertical" H 4650 3350 50  0001 C CNN
F 3 "https://www.reichelt.de/index.html?ACTION=7&LA=3&OPEN=0&INDEX=0&FILENAME=C140%2FRND_205-00625_DB_EN.pdf" H 4650 3350 50  0001 C CNN
F 4 "Reichelt" H 4650 3350 50  0001 C CNN "Distributor"
F 5 "RND CONNECT" H 4650 3350 50  0001 C CNN "MF"
F 6 "RND 205-00625" H 4650 3350 50  0001 C CNN "MPN"
F 7 "RND 205-00625" H 4650 3350 50  0001 C CNN "Ordercode"
	1    4650 3350
	1    0    0    -1  
$EndComp
$Comp
L power:+3.3V #PWR019
U 1 1 5EE332D9
P 4850 3250
F 0 "#PWR019" H 4850 3100 50  0001 C CNN
F 1 "+3.3V" V 4865 3378 50  0000 L CNN
F 2 "" H 4850 3250 50  0001 C CNN
F 3 "" H 4850 3250 50  0001 C CNN
	1    4850 3250
	0    1    1    0   
$EndComp
$Comp
L power:GND #PWR020
U 1 1 5EE3419B
P 4850 3350
F 0 "#PWR020" H 4850 3100 50  0001 C CNN
F 1 "GND" V 4855 3222 50  0000 R CNN
F 2 "" H 4850 3350 50  0001 C CNN
F 3 "" H 4850 3350 50  0001 C CNN
	1    4850 3350
	0    -1   -1   0   
$EndComp
Text Notes 700  3350 0    50   ~ 0
Button und LEDs
Wire Wire Line
	1350 3050 1450 3050
Wire Wire Line
	9700 2400 9850 2400
Wire Wire Line
	9700 2700 9850 2700
Wire Wire Line
	2850 3850 2950 3850
Wire Wire Line
	2950 4050 2850 4050
$Comp
L Switch:SW_Push SW2
U 1 1 5EE25973
P 1000 4150
F 0 "SW2" H 1000 4435 50  0000 C CNN
F 1 "SW_Push" H 1000 4344 50  0000 C CNN
F 2 "Button_Switch_SMD:SW_Push_1P1T_NO_CK_KMR2" H 1000 4350 50  0001 C CNN
F 3 "https://www.reichelt.de/index.html?ACTION=7&LA=3&OPEN=0&INDEX=0&FILENAME=C200%2FKMR2SERIES.pdf" H 1000 4350 50  0001 C CNN
F 4 "Reichelt" H 1000 4150 50  0001 C CNN "Distributor"
F 5 "CKCOMP" H 1000 4150 50  0001 C CNN "MF"
F 6 "KMR231G LFS" H 1000 4150 50  0001 C CNN "MPN"
F 7 "KMR 231 G LFS" H 1000 4150 50  0001 C CNN "Ordercode"
	1    1000 4150
	1    0    0    -1  
$EndComp
Wire Wire Line
	2950 3950 2050 3950
Wire Wire Line
	2950 4250 2850 4250
Wire Wire Line
	2950 4450 2850 4450
Wire Wire Line
	2950 4650 2850 4650
$Comp
L power:GND #PWR011
U 1 1 5EEA37CB
P 2900 5100
F 0 "#PWR011" H 2900 4850 50  0001 C CNN
F 1 "GND" H 2905 4927 50  0000 C CNN
F 2 "" H 2900 5100 50  0001 C CNN
F 3 "" H 2900 5100 50  0001 C CNN
	1    2900 5100
	1    0    0    -1  
$EndComp
Wire Wire Line
	800  3750 750  3750
Wire Wire Line
	750  3750 750  4150
$Comp
L power:GND #PWR01
U 1 1 5EEAB352
P 750 5800
F 0 "#PWR01" H 750 5550 50  0001 C CNN
F 1 "GND" H 755 5627 50  0000 C CNN
F 2 "" H 750 5800 50  0001 C CNN
F 3 "" H 750 5800 50  0001 C CNN
	1    750  5800
	1    0    0    -1  
$EndComp
Wire Wire Line
	800  5750 750  5750
Wire Wire Line
	800  5350 750  5350
Connection ~ 750  5350
Wire Wire Line
	750  5350 750  5750
Wire Wire Line
	800  4950 750  4950
Connection ~ 750  4950
Wire Wire Line
	750  4950 750  5350
Wire Wire Line
	800  4550 750  4550
Connection ~ 750  4550
Wire Wire Line
	750  4550 750  4950
Wire Wire Line
	800  4150 750  4150
Connection ~ 750  4150
Wire Wire Line
	750  4150 750  4550
Wire Wire Line
	1200 3750 1250 3750
Wire Wire Line
	1300 3650 1250 3650
Wire Wire Line
	1250 3650 1250 3750
Wire Wire Line
	1300 4050 1250 4050
Wire Wire Line
	1250 4050 1250 4150
Connection ~ 1250 4150
Wire Wire Line
	1250 4150 1200 4150
Wire Wire Line
	1300 4450 1250 4450
Wire Wire Line
	1250 4450 1250 4550
Connection ~ 1250 4550
Wire Wire Line
	1250 4550 1200 4550
Wire Wire Line
	1300 4850 1250 4850
Wire Wire Line
	1250 4850 1250 4950
Connection ~ 1250 4950
Wire Wire Line
	1250 4950 1200 4950
Wire Wire Line
	1300 5250 1250 5250
Wire Wire Line
	1250 5250 1250 5350
Connection ~ 1250 5350
Wire Wire Line
	1250 5350 1200 5350
Wire Wire Line
	1300 5650 1250 5650
Wire Wire Line
	1250 5650 1250 5750
Connection ~ 1250 5750
Wire Wire Line
	1250 5750 1200 5750
Wire Wire Line
	1250 3750 2950 3750
Connection ~ 1250 3750
Wire Wire Line
	2050 3950 2050 4150
Wire Wire Line
	1250 4150 2050 4150
Wire Wire Line
	2100 4150 2100 4550
Wire Wire Line
	2100 4150 2950 4150
Wire Wire Line
	1250 4550 2100 4550
Wire Wire Line
	2150 4350 2150 4950
Wire Wire Line
	2150 4350 2950 4350
Wire Wire Line
	1250 4950 2150 4950
Wire Wire Line
	2200 4550 2200 5350
Wire Wire Line
	2200 4550 2950 4550
Wire Wire Line
	1250 5350 2200 5350
Wire Wire Line
	2250 4750 2250 5750
Wire Wire Line
	2250 4750 2950 4750
Wire Wire Line
	1250 5750 2250 5750
$Comp
L Device:R R16
U 1 1 5EF6EA1D
P 10000 2400
F 0 "R16" V 9950 2200 50  0000 C CNN
F 1 "470R" V 9950 2550 50  0000 L CNN
F 2 "Resistor_SMD:R_0603_1608Metric_Pad1.05x0.95mm_HandSolder" V 9930 2400 50  0001 C CNN
F 3 "https://www.reichelt.de/index.html?ACTION=7&LA=3&OPEN=0&INDEX=0&FILENAME=B300%2FFLD-CRCW-E3_DATA_EN.pdf" H 10000 2400 50  0001 C CNN
F 4 "Reichelt" H 10000 2400 50  0001 C CNN "Distributor"
F 5 "VISHAY" H 10000 2400 50  0001 C CNN "MF"
F 6 "CRCW0603470RFKEA" H 10000 2400 50  0001 C CNN "MPN"
F 7 "VIS CRCW0603470" H 10000 2400 50  0001 C CNN "Ordercode"
	1    10000 2400
	0    1    1    0   
$EndComp
$Comp
L Device:R R17
U 1 1 5EF7523F
P 10000 2500
F 0 "R17" V 9950 2300 50  0000 C CNN
F 1 "100R" V 9950 2650 50  0000 L CNN
F 2 "Resistor_SMD:R_0603_1608Metric_Pad1.05x0.95mm_HandSolder" V 9930 2500 50  0001 C CNN
F 3 "https://www.reichelt.de/index.html?ACTION=7&LA=3&OPEN=0&INDEX=0&FILENAME=B300%2FFLD-CRCW-E3_DATA_EN.pdf" H 10000 2500 50  0001 C CNN
F 4 "Reichelt" H 10000 2500 50  0001 C CNN "Distributor"
F 5 "VISHAY" H 10000 2500 50  0001 C CNN "MF"
F 6 "CRCW0603100RFKEA" H 10000 2500 50  0001 C CNN "MPN"
F 7 "VIS CRCW06031002" H 10000 2500 50  0001 C CNN "Ordercode"
	1    10000 2500
	0    1    1    0   
$EndComp
$Comp
L Device:R R18
U 1 1 5EF75F06
P 10000 2600
F 0 "R18" V 9950 2400 50  0000 C CNN
F 1 "100R" V 9950 2750 50  0000 L CNN
F 2 "Resistor_SMD:R_0603_1608Metric_Pad1.05x0.95mm_HandSolder" V 9930 2600 50  0001 C CNN
F 3 "https://www.reichelt.de/index.html?ACTION=7&LA=3&OPEN=0&INDEX=0&FILENAME=B300%2FFLD-CRCW-E3_DATA_EN.pdf" H 10000 2600 50  0001 C CNN
F 4 "Reichelt" H 10000 2600 50  0001 C CNN "Distributor"
F 5 "VISHAY" H 10000 2600 50  0001 C CNN "MF"
F 6 "CRCW0603100RFKEA" H 10000 2600 50  0001 C CNN "MPN"
F 7 "VIS CRCW06031002" H 10000 2600 50  0001 C CNN "Ordercode"
	1    10000 2600
	0    1    1    0   
$EndComp
$Comp
L Device:R R20
U 1 1 5EF78384
P 10000 3000
F 0 "R20" V 9950 2800 50  0000 C CNN
F 1 "220R" V 9950 3150 50  0000 L CNN
F 2 "Resistor_SMD:R_0603_1608Metric_Pad1.05x0.95mm_HandSolder" V 9930 3000 50  0001 C CNN
F 3 "https://www.reichelt.de/index.html?ACTION=7&LA=3&OPEN=0&INDEX=0&FILENAME=B300%2FFLD-CRCW-E3_DATA_EN.pdf" H 10000 3000 50  0001 C CNN
F 4 "Reichelt" H 10000 3000 50  0001 C CNN "Distributor"
F 5 "VISHAY" H 10000 3000 50  0001 C CNN "MF"
F 6 "CRCW0603220RFKEA" H 10000 3000 50  0001 C CNN "MPN"
F 7 "VIS CRCW0603220" H 10000 3000 50  0001 C CNN "Ordercode"
	1    10000 3000
	0    1    1    0   
$EndComp
$Comp
L Device:R R21
U 1 1 5EF78DAF
P 10000 3100
F 0 "R21" V 9950 2900 50  0000 C CNN
F 1 "220R" V 9950 3250 50  0000 L CNN
F 2 "Resistor_SMD:R_0603_1608Metric_Pad1.05x0.95mm_HandSolder" V 9930 3100 50  0001 C CNN
F 3 "https://www.reichelt.de/index.html?ACTION=7&LA=3&OPEN=0&INDEX=0&FILENAME=B300%2FFLD-CRCW-E3_DATA_EN.pdf" H 10000 3100 50  0001 C CNN
F 4 "Reichelt" H 10000 3100 50  0001 C CNN "Distributor"
F 5 "VISHAY" H 10000 3100 50  0001 C CNN "MF"
F 6 "CRCW0603220RFKEA" H 10000 3100 50  0001 C CNN "MPN"
F 7 "VIS CRCW0603220" H 10000 3100 50  0001 C CNN "Ordercode"
	1    10000 3100
	0    1    1    0   
$EndComp
Wire Wire Line
	10150 2400 10400 2400
Wire Wire Line
	10400 2500 10150 2500
Wire Wire Line
	9700 2500 9850 2500
Wire Wire Line
	9700 2600 9850 2600
Wire Wire Line
	10150 2600 10400 2600
Wire Wire Line
	10400 2700 10150 2700
Wire Wire Line
	10150 3000 10400 3000
Wire Wire Line
	10400 3100 10150 3100
Wire Wire Line
	9700 3100 9850 3100
$Comp
L Device:R R19
U 1 1 5EF7764B
P 10000 2700
F 0 "R19" V 9950 2500 50  0000 C CNN
F 1 "220R" V 9950 2850 50  0000 L CNN
F 2 "Resistor_SMD:R_0603_1608Metric_Pad1.05x0.95mm_HandSolder" V 9930 2700 50  0001 C CNN
F 3 "https://www.reichelt.de/index.html?ACTION=7&LA=3&OPEN=0&INDEX=0&FILENAME=B300%2FFLD-CRCW-E3_DATA_EN.pdf" H 10000 2700 50  0001 C CNN
F 4 "Reichelt" H 10000 2700 50  0001 C CNN "Distributor"
F 5 "VISHAY" H 10000 2700 50  0001 C CNN "MF"
F 6 "CRCW0603220RFKEA" H 10000 2700 50  0001 C CNN "MPN"
F 7 "VIS CRCW0603220" H 10000 2700 50  0001 C CNN "Ordercode"
	1    10000 2700
	0    1    1    0   
$EndComp
$Comp
L Device:R R2
U 1 1 5EE230DE
P 1750 1750
F 0 "R2" V 1543 1750 50  0000 C CNN
F 1 "10k" V 1634 1750 50  0000 C CNN
F 2 "Resistor_SMD:R_0603_1608Metric_Pad1.05x0.95mm_HandSolder" V 1680 1750 50  0001 C CNN
F 3 "https://www.reichelt.de/index.html?ACTION=7&LA=3&OPEN=0&INDEX=0&FILENAME=B300%2FFLD-CRCW-E3_DATA_EN.pdf" H 1750 1750 50  0001 C CNN
F 4 "Reichelt" H 1750 1750 50  0001 C CNN "Distributor"
F 5 "VISHAY" H 1750 1750 50  0001 C CNN "MF"
F 6 "CRCW060310K0FKEA" H 1750 1750 50  0001 C CNN "MPN"
F 7 "VIS CRCW060310K" H 1750 1750 50  0001 C CNN "Ordercode"
	1    1750 1750
	0    1    1    0   
$EndComp
$Comp
L Device:R R4
U 1 1 5EE22178
P 2150 1750
F 0 "R4" V 1943 1750 50  0000 C CNN
F 1 "1k" V 2034 1750 50  0000 C CNN
F 2 "Resistor_SMD:R_0603_1608Metric_Pad1.05x0.95mm_HandSolder" V 2080 1750 50  0001 C CNN
F 3 "https://www.reichelt.de/index.html?ACTION=7&LA=3&OPEN=0&INDEX=0&FILENAME=B300%2FFLD-CRCW-E3_DATA_EN.pdf" H 2150 1750 50  0001 C CNN
F 4 "Reichelt" H 2150 1750 50  0001 C CNN "Distributor"
F 5 "VISHAY" H 2150 1750 50  0001 C CNN "MF"
F 6 "CRCW06031K00FKEA" H 2150 1750 50  0001 C CNN "MPN"
F 7 "VIS CRCW06031K0" H 2150 1750 50  0001 C CNN "Ordercode"
	1    2150 1750
	0    1    1    0   
$EndComp
$Comp
L Device:R R3
U 1 1 5EE1FE67
P 2050 3050
F 0 "R3" V 1843 3050 50  0000 C CNN
F 1 "10k" V 1934 3050 50  0000 C CNN
F 2 "Resistor_SMD:R_0603_1608Metric_Pad1.05x0.95mm_HandSolder" V 1980 3050 50  0001 C CNN
F 3 "https://www.reichelt.de/index.html?ACTION=7&LA=3&OPEN=0&INDEX=0&FILENAME=B300%2FFLD-CRCW-E3_DATA_EN.pdf" H 2050 3050 50  0001 C CNN
F 4 "Reichelt" H 2050 3050 50  0001 C CNN "Distributor"
F 5 "VISHAY" H 2050 3050 50  0001 C CNN "MF"
F 6 "CRCW060310K0FKEA" H 2050 3050 50  0001 C CNN "MPN"
F 7 "VIS CRCW060310K" H 2050 3050 50  0001 C CNN "Ordercode"
	1    2050 3050
	0    1    1    0   
$EndComp
$Comp
L Device:R R5
U 1 1 5EE70F4A
P 3300 2550
F 0 "R5" V 3093 2550 50  0000 C CNN
F 1 "1k" V 3184 2550 50  0000 C CNN
F 2 "Resistor_SMD:R_0603_1608Metric_Pad1.05x0.95mm_HandSolder" V 3230 2550 50  0001 C CNN
F 3 "https://www.reichelt.de/index.html?ACTION=7&LA=3&OPEN=0&INDEX=0&FILENAME=B300%2FFLD-CRCW-E3_DATA_EN.pdf" H 3300 2550 50  0001 C CNN
F 4 "Reichelt" H 3300 2550 50  0001 C CNN "Distributor"
F 5 "VISHAY" H 3300 2550 50  0001 C CNN "MF"
F 6 "CRCW06031K00FKEA" H 3300 2550 50  0001 C CNN "MPN"
F 7 "VIS CRCW06031K0" H 3300 2550 50  0001 C CNN "Ordercode"
	1    3300 2550
	0    1    1    0   
$EndComp
Wire Wire Line
	3500 2550 3450 2550
Wire Wire Line
	1200 2150 1300 2150
Wire Wire Line
	1300 2150 1300 1950
Connection ~ 1300 2150
Wire Wire Line
	1300 2150 1350 2150
Wire Wire Line
	1300 1650 1300 1450
Wire Wire Line
	1300 1450 1550 1450
Wire Wire Line
	1550 1750 1550 1450
Connection ~ 1550 1750
Connection ~ 1550 1450
Wire Wire Line
	1550 1450 3550 1450
Wire Wire Line
	2950 4950 2900 4950
Wire Wire Line
	2950 4850 2900 4850
$Comp
L power:+3.3V #PWR010
U 1 1 5F068728
P 2900 4950
F 0 "#PWR010" H 2900 4800 50  0001 C CNN
F 1 "+3.3V" V 2915 5078 50  0000 L CNN
F 2 "" H 2900 4950 50  0001 C CNN
F 3 "" H 2900 4950 50  0001 C CNN
	1    2900 4950
	0    -1   -1   0   
$EndComp
$Comp
L Device:C C1
U 1 1 5F06CEA2
P 3150 2250
F 0 "C1" V 2898 2250 50  0000 C CNN
F 1 "100nF" V 2989 2250 50  0000 C CNN
F 2 "Capacitor_SMD:C_0603_1608Metric_Pad1.05x0.95mm_HandSolder" H 3188 2100 50  0001 C CNN
F 3 "~" H 3150 2250 50  0001 C CNN
F 4 "Reichelt" H 3150 2250 50  0001 C CNN "Distributor"
F 5 "YAGEO" H 3150 2250 50  0001 C CNN "MF"
F 6 "CC0603KRX7R7BB104" H 3150 2250 50  0001 C CNN "MPN"
F 7 "X7R-G0603 100N" H 3150 2250 50  0001 C CNN "Ordercode"
	1    3150 2250
	0    1    1    0   
$EndComp
$Comp
L power:+3.3V #PWR08
U 1 1 5F06E2DB
P 2900 2100
F 0 "#PWR08" H 2900 1950 50  0001 C CNN
F 1 "+3.3V" H 2915 2273 50  0000 C CNN
F 2 "" H 2900 2100 50  0001 C CNN
F 3 "" H 2900 2100 50  0001 C CNN
	1    2900 2100
	1    0    0    -1  
$EndComp
$Comp
L power:GND #PWR012
U 1 1 5F06EFA3
P 3300 2250
F 0 "#PWR012" H 3300 2000 50  0001 C CNN
F 1 "GND" V 3305 2122 50  0000 R CNN
F 2 "" H 3300 2250 50  0001 C CNN
F 3 "" H 3300 2250 50  0001 C CNN
	1    3300 2250
	0    -1   -1   0   
$EndComp
Wire Wire Line
	2900 2500 2900 2250
Wire Wire Line
	2900 2250 3000 2250
Connection ~ 2900 2250
Wire Wire Line
	2900 2250 2900 2100
$Comp
L Memory_EEPROM:CAT24C128 U3
U 1 1 5F0A2AC2
P 5350 2000
F 0 "U3" H 5350 2481 50  0000 C CNN
F 1 "M24C64" H 5350 2390 50  0000 C CNN
F 2 "Package_SO:SOIC-8_3.9x4.9mm_P1.27mm" H 5350 2000 50  0001 C CNN
F 3 "https://www.reichelt.de/index.html?ACTION=7&LA=3&OPEN=0&INDEX=0&FILENAME=A300%2FST24C32_ST24C64%23STM.pdf" H 5350 2000 50  0001 C CNN
F 4 "Reichelt" H 5350 2000 50  0001 C CNN "Distributor"
F 5 "ST MICROELECTRONICS" H 5350 2000 50  0001 C CNN "MF"
F 6 "M24C64-WMN6" H 5350 2000 50  0001 C CNN "MPN"
F 7 "ST 24C64 MN6" H 5350 2000 50  0001 C CNN "Ordercode"
	1    5350 2000
	1    0    0    -1  
$EndComp
Text Label 9800 1700 0    50   ~ 0
SDA
Text Label 9800 1800 0    50   ~ 0
SCL
Wire Wire Line
	5750 1900 5800 1900
Wire Wire Line
	5750 2000 6100 2000
Text Label 6300 1900 0    50   ~ 0
ID_SD
Text Label 6300 2000 0    50   ~ 0
ID_SC
$Comp
L power:+3.3V #PWR018
U 1 1 5F0E4876
P 4500 1600
F 0 "#PWR018" H 4500 1450 50  0001 C CNN
F 1 "+3.3V" H 4515 1773 50  0000 C CNN
F 2 "" H 4500 1600 50  0001 C CNN
F 3 "" H 4500 1600 50  0001 C CNN
	1    4500 1600
	1    0    0    -1  
$EndComp
Wire Wire Line
	5350 2300 5350 2350
Wire Wire Line
	5350 2350 4900 2350
Wire Wire Line
	4500 2350 4500 2150
Wire Wire Line
	5350 1700 5350 1650
Wire Wire Line
	5350 1650 4500 1650
Wire Wire Line
	4500 1650 4500 1600
Wire Wire Line
	4500 1650 4500 1850
Connection ~ 4500 1650
$Comp
L power:GND #PWR023
U 1 1 5F0FB5FF
P 5350 2400
F 0 "#PWR023" H 5350 2150 50  0001 C CNN
F 1 "GND" H 5355 2227 50  0000 C CNN
F 2 "" H 5350 2400 50  0001 C CNN
F 3 "" H 5350 2400 50  0001 C CNN
	1    5350 2400
	1    0    0    -1  
$EndComp
Wire Wire Line
	5350 2400 5350 2350
Connection ~ 5350 2350
Wire Wire Line
	4950 1900 4900 1900
Wire Wire Line
	4900 1900 4900 2000
Connection ~ 4900 2350
Wire Wire Line
	4900 2350 4500 2350
Wire Wire Line
	4950 2000 4900 2000
Connection ~ 4900 2000
Wire Wire Line
	4900 2000 4900 2100
Wire Wire Line
	4950 2100 4900 2100
Connection ~ 4900 2100
Wire Wire Line
	4900 2100 4900 2350
Wire Wire Line
	5350 2350 5800 2350
Wire Wire Line
	5800 2350 5800 2100
Wire Wire Line
	5800 2100 5750 2100
$Comp
L Device:R R9
U 1 1 5F1215BE
P 5800 1500
F 0 "R9" H 5870 1546 50  0000 L CNN
F 1 "3k3" H 5870 1455 50  0000 L CNN
F 2 "Resistor_SMD:R_0603_1608Metric_Pad1.05x0.95mm_HandSolder" V 5730 1500 50  0001 C CNN
F 3 "https://www.reichelt.de/index.html?ACTION=7&LA=3&OPEN=0&INDEX=0&FILENAME=B300%2FFLD-CRCW-E3_DATA_EN.pdf" H 5800 1500 50  0001 C CNN
F 4 "Reichelt" H 5800 1500 50  0001 C CNN "Distributor"
F 5 "VISHAY" H 5800 1500 50  0001 C CNN "MF"
F 6 "CRCW06033K30FKEA" H 5800 1500 50  0001 C CNN "MPN"
F 7 "VIS CRCW06033K3" H 5800 1500 50  0001 C CNN "Ordercode"
	1    5800 1500
	1    0    0    -1  
$EndComp
$Comp
L Device:R R10
U 1 1 5F122769
P 6100 1500
F 0 "R10" H 6170 1546 50  0000 L CNN
F 1 "3k3" H 6170 1455 50  0000 L CNN
F 2 "Resistor_SMD:R_0603_1608Metric_Pad1.05x0.95mm_HandSolder" V 6030 1500 50  0001 C CNN
F 3 "https://www.reichelt.de/index.html?ACTION=7&LA=3&OPEN=0&INDEX=0&FILENAME=B300%2FFLD-CRCW-E3_DATA_EN.pdf" H 6100 1500 50  0001 C CNN
F 4 "Reichelt" H 6100 1500 50  0001 C CNN "Distributor"
F 5 "VISHAY" H 6100 1500 50  0001 C CNN "MF"
F 6 "CRCW06033K30FKEA" H 6100 1500 50  0001 C CNN "MPN"
F 7 "VIS CRCW06033K3" H 6100 1500 50  0001 C CNN "Ordercode"
	1    6100 1500
	1    0    0    -1  
$EndComp
Wire Wire Line
	5800 1650 5800 1900
Connection ~ 5800 1900
Wire Wire Line
	5800 1900 6300 1900
Wire Wire Line
	6100 1650 6100 2000
Connection ~ 6100 2000
Wire Wire Line
	6100 2000 6300 2000
$Comp
L power:+3.3V #PWR026
U 1 1 5F141B19
P 5800 1350
F 0 "#PWR026" H 5800 1200 50  0001 C CNN
F 1 "+3.3V" H 5815 1523 50  0000 C CNN
F 2 "" H 5800 1350 50  0001 C CNN
F 3 "" H 5800 1350 50  0001 C CNN
	1    5800 1350
	1    0    0    -1  
$EndComp
$Comp
L power:+3.3V #PWR027
U 1 1 5F14237F
P 6100 1350
F 0 "#PWR027" H 6100 1200 50  0001 C CNN
F 1 "+3.3V" H 6115 1523 50  0000 C CNN
F 2 "" H 6100 1350 50  0001 C CNN
F 3 "" H 6100 1350 50  0001 C CNN
	1    6100 1350
	1    0    0    -1  
$EndComp
Text Label 10400 2400 0    50   ~ 0
LED_power
Text Label 10400 2500 0    50   ~ 0
LED_playpause
Text Label 10400 2600 0    50   ~ 0
LED_next
Text Label 10400 2700 0    50   ~ 0
LED_prev
Text Label 10400 3000 0    50   ~ 0
LED_volume_up
Text Label 10400 3100 0    50   ~ 0
LED_volume_down
Text Label 9800 2000 0    50   ~ 0
pi_shutdown
Text Label 8000 3000 2    50   ~ 0
btn_playpause
Text Label 8000 2900 2    50   ~ 0
hifiberry_shutdown
Text Label 8000 1800 2    50   ~ 0
btn_pi_power
Text Label 8000 1700 2    50   ~ 0
hifiberry_mute
Wire Wire Line
	1750 3050 1900 3050
Text Label 1300 3650 0    50   ~ 0
btn_volume_up
Text Label 1300 4050 0    50   ~ 0
btn_volume_down
Text Label 1300 4450 0    50   ~ 0
btn_next
Text Label 1300 4850 0    50   ~ 0
btn_playpause
Text Label 1300 5250 0    50   ~ 0
btn_prev
Text Label 1300 5650 0    50   ~ 0
btn_power
Text Label 2850 3850 2    50   ~ 0
LED_volume_up
Text Label 2850 4050 2    50   ~ 0
LED_volume_down
Text Label 2850 4250 2    50   ~ 0
LED_next
Text Label 2850 4450 2    50   ~ 0
LED_playpause
Text Label 2850 4650 2    50   ~ 0
LED_prev
Text Label 2900 4850 2    50   ~ 0
LED_power
$Comp
L Connector:Screw_Terminal_01x14 J2
U 1 1 5F155CC7
P 3150 4350
F 0 "J2" H 3230 4342 50  0000 L CNN
F 1 "Screw_Terminal_01x14" H 3230 4251 50  0000 L CNN
F 2 "TerminalBlock_Phoenix:TerminalBlock_Phoenix_PT-1,5-14-3.5-H_1x14_P3.50mm_Horizontal" H 3150 4350 50  0001 C CNN
F 3 "https://www.reichelt.de/index.html?ACTION=7&LA=3&OPEN=0&INDEX=0&FILENAME=C100%2FAKL059%23RIA.pdf" H 3150 4350 50  0001 C CNN
F 4 "Reichelt" H 3150 4350 50  0001 C CNN "Distributor"
F 5 "RIA CONNECT" H 3150 4350 50  0001 C CNN "MF"
F 6 "31059102" H 3150 4350 50  0001 C CNN "MPN"
F 7 "AKL 059-02" H 3150 4350 50  0001 C CNN "Ordercode"
	1    3150 4350
	1    0    0    -1  
$EndComp
Wire Wire Line
	2950 5050 2900 5050
Wire Wire Line
	2900 5050 2900 5100
Text Label 2000 1900 0    50   ~ 0
btn_power
Text Label 2550 2550 2    50   ~ 0
btn_power
Wire Wire Line
	2200 3050 2250 3050
Text Label 2250 3050 0    50   ~ 0
btn_pi_power
Wire Wire Line
	4850 3450 5300 3450
Text Label 5750 3450 0    50   ~ 0
SCL
Wire Wire Line
	4850 3550 5600 3550
Text Label 5750 3550 0    50   ~ 0
SDA
Wire Wire Line
	9700 1400 9800 1400
Wire Wire Line
	9700 1500 9800 1500
Text Label 9800 1500 0    50   ~ 0
ID_SC
$Comp
L Device:R R7
U 1 1 5F1B6EDE
P 5300 3150
F 0 "R7" H 5370 3196 50  0000 L CNN
F 1 "3k3" H 5370 3105 50  0000 L CNN
F 2 "Resistor_SMD:R_0603_1608Metric_Pad1.05x0.95mm_HandSolder" V 5230 3150 50  0001 C CNN
F 3 "https://www.reichelt.de/index.html?ACTION=7&LA=3&OPEN=0&INDEX=0&FILENAME=B300%2FFLD-CRCW-E3_DATA_EN.pdf" H 5300 3150 50  0001 C CNN
F 4 "Reichelt" H 5300 3150 50  0001 C CNN "Distributor"
F 5 "VISHAY" H 5300 3150 50  0001 C CNN "MF"
F 6 "CRCW06033K30FKEA" H 5300 3150 50  0001 C CNN "MPN"
F 7 "VIS CRCW06033K3" H 5300 3150 50  0001 C CNN "Ordercode"
	1    5300 3150
	1    0    0    -1  
$EndComp
$Comp
L Device:R R8
U 1 1 5F1B78BB
P 5600 3150
F 0 "R8" H 5670 3196 50  0000 L CNN
F 1 "3k3" H 5670 3105 50  0000 L CNN
F 2 "Resistor_SMD:R_0603_1608Metric_Pad1.05x0.95mm_HandSolder" V 5530 3150 50  0001 C CNN
F 3 "https://www.reichelt.de/index.html?ACTION=7&LA=3&OPEN=0&INDEX=0&FILENAME=B300%2FFLD-CRCW-E3_DATA_EN.pdf" H 5600 3150 50  0001 C CNN
F 4 "Reichelt" H 5600 3150 50  0001 C CNN "Distributor"
F 5 "VISHAY" H 5600 3150 50  0001 C CNN "MF"
F 6 "CRCW06033K30FKEA" H 5600 3150 50  0001 C CNN "MPN"
F 7 "VIS CRCW06033K3" H 5600 3150 50  0001 C CNN "Ordercode"
	1    5600 3150
	1    0    0    -1  
$EndComp
$Comp
L power:+3.3V #PWR022
U 1 1 5F1B8240
P 5300 3000
F 0 "#PWR022" H 5300 2850 50  0001 C CNN
F 1 "+3.3V" H 5315 3173 50  0000 C CNN
F 2 "" H 5300 3000 50  0001 C CNN
F 3 "" H 5300 3000 50  0001 C CNN
	1    5300 3000
	1    0    0    -1  
$EndComp
$Comp
L power:+3.3V #PWR025
U 1 1 5F1C0F24
P 5600 3000
F 0 "#PWR025" H 5600 2850 50  0001 C CNN
F 1 "+3.3V" H 5615 3173 50  0000 C CNN
F 2 "" H 5600 3000 50  0001 C CNN
F 3 "" H 5600 3000 50  0001 C CNN
	1    5600 3000
	1    0    0    -1  
$EndComp
Wire Wire Line
	5300 3300 5300 3450
Connection ~ 5300 3450
Wire Wire Line
	5300 3450 5750 3450
Wire Wire Line
	5600 3300 5600 3550
Connection ~ 5600 3550
Wire Wire Line
	5600 3550 5750 3550
Wire Notes Line
	6550 1100 6550 2650
Wire Notes Line
	5950 2700 5950 3650
$Comp
L Device:LED D3
U 1 1 5F2378D4
P 2800 5650
F 0 "D3" H 2650 5700 50  0000 C CNN
F 1 "LED" H 2950 5700 50  0000 C CNN
F 2 "LED_SMD:LED_0603_1608Metric_Pad1.05x0.95mm_HandSolder" H 2800 5650 50  0001 C CNN
F 3 "https://www.reichelt.de/index.html?ACTION=7&LA=3&OPEN=0&INDEX=0&FILENAME=C500%2FRND+135-00182_ENG_TDS.pdf" H 2800 5650 50  0001 C CNN
F 4 "Reichelt" H 2800 5650 50  0001 C CNN "Distributor"
F 5 "RND COMPONENTS" H 2800 5650 50  0001 C CNN "MF"
F 6 "RND 135-00182" H 2800 5650 50  0001 C CNN "MPN"
F 7 "RND 135-00182" H 2800 5650 50  0001 C CNN "Ordercode"
	1    2800 5650
	1    0    0    -1  
$EndComp
$Comp
L Device:LED D4
U 1 1 5F2390DD
P 2800 5850
F 0 "D4" H 2650 5900 50  0000 C CNN
F 1 "LED" H 2950 5900 50  0000 C CNN
F 2 "LED_SMD:LED_0603_1608Metric_Pad1.05x0.95mm_HandSolder" H 2800 5850 50  0001 C CNN
F 3 "https://www.reichelt.de/index.html?ACTION=7&LA=3&OPEN=0&INDEX=0&FILENAME=C500%2FRND+135-00182_ENG_TDS.pdf" H 2800 5850 50  0001 C CNN
F 4 "Reichelt" H 2800 5850 50  0001 C CNN "Distributor"
F 5 "RND COMPONENTS" H 2800 5850 50  0001 C CNN "MF"
F 6 "RND 135-00182" H 2800 5850 50  0001 C CNN "MPN"
F 7 "RND 135-00182" H 2800 5850 50  0001 C CNN "Ordercode"
	1    2800 5850
	1    0    0    -1  
$EndComp
$Comp
L Device:LED D5
U 1 1 5F23970D
P 2800 6050
F 0 "D5" H 2650 6100 50  0000 C CNN
F 1 "LED" H 2950 6100 50  0000 C CNN
F 2 "LED_SMD:LED_0603_1608Metric_Pad1.05x0.95mm_HandSolder" H 2800 6050 50  0001 C CNN
F 3 "https://www.reichelt.de/index.html?ACTION=7&LA=3&OPEN=0&INDEX=0&FILENAME=C500%2FRND+135-00182_ENG_TDS.pdf" H 2800 6050 50  0001 C CNN
F 4 "Reichelt" H 2800 6050 50  0001 C CNN "Distributor"
F 5 "RND COMPONENTS" H 2800 6050 50  0001 C CNN "MF"
F 6 "RND 135-00182" H 2800 6050 50  0001 C CNN "MPN"
F 7 "RND 135-00182" H 2800 6050 50  0001 C CNN "Ordercode"
	1    2800 6050
	1    0    0    -1  
$EndComp
Wire Wire Line
	2950 5650 3000 5650
Wire Wire Line
	2950 5850 3050 5850
Wire Wire Line
	2950 6050 3050 6050
$Comp
L Device:LED D6
U 1 1 5F2B940A
P 2800 6250
F 0 "D6" H 2650 6300 50  0000 C CNN
F 1 "LED" H 2950 6300 50  0000 C CNN
F 2 "LED_SMD:LED_0603_1608Metric_Pad1.05x0.95mm_HandSolder" H 2800 6250 50  0001 C CNN
F 3 "https://www.reichelt.de/index.html?ACTION=7&LA=3&OPEN=0&INDEX=0&FILENAME=C500%2FRND+135-00182_ENG_TDS.pdf" H 2800 6250 50  0001 C CNN
F 4 "Reichelt" H 2800 6250 50  0001 C CNN "Distributor"
F 5 "RND COMPONENTS" H 2800 6250 50  0001 C CNN "MF"
F 6 "RND 135-00182" H 2800 6250 50  0001 C CNN "MPN"
F 7 "RND 135-00182" H 2800 6250 50  0001 C CNN "Ordercode"
	1    2800 6250
	1    0    0    -1  
$EndComp
$Comp
L Device:LED D7
U 1 1 5F2B9884
P 2800 6450
F 0 "D7" H 2650 6500 50  0000 C CNN
F 1 "LED" H 2950 6500 50  0000 C CNN
F 2 "LED_SMD:LED_0603_1608Metric_Pad1.05x0.95mm_HandSolder" H 2800 6450 50  0001 C CNN
F 3 "https://www.reichelt.de/index.html?ACTION=7&LA=3&OPEN=0&INDEX=0&FILENAME=C500%2FRND+135-00182_ENG_TDS.pdf" H 2800 6450 50  0001 C CNN
F 4 "Reichelt" H 2800 6450 50  0001 C CNN "Distributor"
F 5 "RND COMPONENTS" H 2800 6450 50  0001 C CNN "MF"
F 6 "RND 135-00182" H 2800 6450 50  0001 C CNN "MPN"
F 7 "RND 135-00182" H 2800 6450 50  0001 C CNN "Ordercode"
	1    2800 6450
	1    0    0    -1  
$EndComp
$Comp
L Device:LED D8
U 1 1 5F2B9CAD
P 2800 6650
F 0 "D8" H 2650 6700 50  0000 C CNN
F 1 "LED" H 2950 6700 50  0000 C CNN
F 2 "LED_SMD:LED_0603_1608Metric_Pad1.05x0.95mm_HandSolder" H 2800 6650 50  0001 C CNN
F 3 "https://www.reichelt.de/index.html?ACTION=7&LA=3&OPEN=0&INDEX=0&FILENAME=C500%2FRND+135-00182_ENG_TDS.pdf" H 2800 6650 50  0001 C CNN
F 4 "Reichelt" H 2800 6650 50  0001 C CNN "Distributor"
F 5 "RND COMPONENTS" H 2800 6650 50  0001 C CNN "MF"
F 6 "RND 135-00182" H 2800 6650 50  0001 C CNN "MPN"
F 7 "RND 135-00182" H 2800 6650 50  0001 C CNN "Ordercode"
	1    2800 6650
	1    0    0    -1  
$EndComp
Wire Wire Line
	2650 5650 2500 5650
Wire Wire Line
	2500 5650 2500 5850
Wire Wire Line
	2650 5850 2500 5850
Connection ~ 2500 5850
Wire Wire Line
	2500 5850 2500 6050
Wire Wire Line
	2650 6050 2500 6050
Connection ~ 2500 6050
Wire Wire Line
	2500 6050 2500 6250
Wire Wire Line
	2650 6250 2500 6250
Connection ~ 2500 6250
Wire Wire Line
	2500 6250 2500 6450
Wire Wire Line
	2650 6450 2500 6450
Connection ~ 2500 6450
Wire Wire Line
	2500 6450 2500 6650
Wire Wire Line
	2650 6650 2500 6650
Wire Wire Line
	2950 6650 3050 6650
Wire Wire Line
	2950 6450 3050 6450
Wire Wire Line
	2950 6250 3050 6250
Text Label 3000 5650 0    50   ~ 0
LED_volume_up
Text Label 3050 5850 0    50   ~ 0
LED_volume_down
Text Label 3050 6050 0    50   ~ 0
LED_next
Text Label 3050 6250 0    50   ~ 0
LED_playpause
Text Label 3050 6450 0    50   ~ 0
LED_prev
Text Label 3050 6650 0    50   ~ 0
LED_power
Wire Notes Line
	4350 7300 650  7300
Wire Notes Line
	650  7300 650  3250
Wire Wire Line
	750  5800 750  5750
Connection ~ 750  5750
$Comp
L Jumper:SolderJumper_2_Open JP1
U 1 1 5EEC2077
P 2500 6850
F 0 "JP1" V 2454 6918 50  0000 L CNN
F 1 "SolderJumper_2_Open" V 2545 6918 50  0000 L CNN
F 2 "Jumper:SolderJumper-2_P1.3mm_Open_RoundedPad1.0x1.5mm" H 2500 6850 50  0001 C CNN
F 3 "~" H 2500 6850 50  0001 C CNN
	1    2500 6850
	0    1    1    0   
$EndComp
$Comp
L power:GND #PWR05
U 1 1 5EEC306C
P 2500 7050
F 0 "#PWR05" H 2500 6800 50  0001 C CNN
F 1 "GND" H 2505 6877 50  0000 C CNN
F 2 "" H 2500 7050 50  0001 C CNN
F 3 "" H 2500 7050 50  0001 C CNN
	1    2500 7050
	1    0    0    -1  
$EndComp
Wire Wire Line
	2500 7050 2500 7000
Wire Wire Line
	2500 6700 2500 6650
Connection ~ 2500 6650
Wire Wire Line
	9700 3000 9850 3000
Text Label 9800 1400 0    50   ~ 0
ID_SD
$Comp
L Connector:Raspberry_Pi_2_3 J4
U 1 1 5EE00552
P 8900 2300
F 0 "J4" H 8900 3781 50  0000 C CNN
F 1 "Raspberry_Pi_2_3" H 8900 3690 50  0000 C CNN
F 2 "Connector_PinSocket_2.54mm:PinSocket_2x20_P2.54mm_Vertical" H 8900 2300 50  0001 C CNN
F 3 "https://www.raspberrypi.org/documentation/hardware/raspberrypi/schematics/rpi_SCH_3bplus_1p0_reduced.pdf" H 8900 2300 50  0001 C CNN
F 4 "Reichelt" H 8900 2300 50  0001 C CNN "Distributor"
F 5 "MPE" H 8900 2300 50  0001 C CNN "MF"
F 6 "094-2-040" H 8900 2300 50  0001 C CNN "MPN"
F 7 "MPE 094-2-040" H 8900 2300 50  0001 C CNN "Ordercode"
	1    8900 2300
	1    0    0    -1  
$EndComp
$Comp
L Audio:PCM5101 U4
U 1 1 5EEE5252
P 7450 8350
F 0 "U4" H 7450 8450 50  0000 C CNN
F 1 "PCM5101" H 7450 8350 50  0000 C CNN
F 2 "Package_SO:TSSOP-20_4.4x6.5mm_P0.65mm" H 7400 9100 50  0001 C CNN
F 3 "http://www.ti.com/lit/ds/symlink/pcm5101.pdf" H 7400 9100 50  0001 C CNN
F 4 "Mouser" H 7450 8350 50  0001 C CNN "Distributor"
F 5 "Texas Instruments" H 7450 8350 50  0001 C CNN "MF"
F 6 "PCM5101APWR" H 7450 8350 50  0001 C CNN "MPN"
F 7 "595-PCM5101APWR" H 7450 8350 50  0001 C CNN "Ordercode"
	1    7450 8350
	1    0    0    -1  
$EndComp
$Comp
L power:GND #PWR036
U 1 1 5EEE8FF2
P 7450 9500
F 0 "#PWR036" H 7450 9250 50  0001 C CNN
F 1 "GND" H 7455 9327 50  0000 C CNN
F 2 "" H 7450 9500 50  0001 C CNN
F 3 "" H 7450 9500 50  0001 C CNN
	1    7450 9500
	1    0    0    -1  
$EndComp
Connection ~ 7450 9450
Wire Wire Line
	7450 9450 7450 9500
$Comp
L Device:C C12
U 1 1 5EF191D4
P 8050 9050
F 0 "C12" H 8165 9096 50  0000 L CNN
F 1 "2.2uF" H 8165 9005 50  0000 L CNN
F 2 "Capacitor_SMD:C_0603_1608Metric_Pad1.05x0.95mm_HandSolder" H 8088 8900 50  0001 C CNN
F 3 "https://www.reichelt.de/index.html?ACTION=7&LA=3&OPEN=0&INDEX=0&FILENAME=A900%2FRND_0603_X5R_ENG_TDS.pdf" H 8050 9050 50  0001 C CNN
F 4 "Reichelt" H 8050 9050 50  0001 C CNN "Distributor"
F 5 "RND COMPONENTS" H 8050 9050 50  0001 C CNN "MF"
F 6 "RND 1500603X225K100NT" H 8050 9050 50  0001 C CNN "MPN"
F 7 "RND 1500603X225" H 8050 9050 50  0001 C CNN "Ordercode"
	1    8050 9050
	1    0    0    -1  
$EndComp
$Comp
L Device:C C13
U 1 1 5EF19A9A
P 8100 8400
F 0 "C13" H 8215 8446 50  0000 L CNN
F 1 "2.2uF" H 8215 8355 50  0000 L CNN
F 2 "Capacitor_SMD:C_0603_1608Metric_Pad1.05x0.95mm_HandSolder" H 8138 8250 50  0001 C CNN
F 3 "https://www.reichelt.de/index.html?ACTION=7&LA=3&OPEN=0&INDEX=0&FILENAME=A900%2FRND_0603_X5R_ENG_TDS.pdf" H 8100 8400 50  0001 C CNN
F 4 "Reichelt" H 8100 8400 50  0001 C CNN "Distributor"
F 5 "RND COMPONENTS" H 8100 8400 50  0001 C CNN "MF"
F 6 "RND 1500603X225K100NT" H 8100 8400 50  0001 C CNN "MPN"
F 7 "RND 1500603X225" H 8100 8400 50  0001 C CNN "Ordercode"
	1    8100 8400
	1    0    0    -1  
$EndComp
Wire Wire Line
	7950 8850 8050 8850
Wire Wire Line
	8050 8850 8050 8900
Wire Wire Line
	7950 8550 8100 8550
Wire Wire Line
	7950 8250 8100 8250
$Comp
L Device:C C14
U 1 1 5EF6C03B
P 8450 9050
F 0 "C14" H 8565 9096 50  0000 L CNN
F 1 "100nF" H 8565 9005 50  0000 L CNN
F 2 "Capacitor_SMD:C_0603_1608Metric_Pad1.05x0.95mm_HandSolder" H 8488 8900 50  0001 C CNN
F 3 "~" H 8450 9050 50  0001 C CNN
F 4 "Reichelt" H 8450 9050 50  0001 C CNN "Distributor"
F 5 "YAGEO" H 8450 9050 50  0001 C CNN "MF"
F 6 "CC0603KRX7R7BB104" H 8450 9050 50  0001 C CNN "MPN"
F 7 "X7R-G0603 100N" H 8450 9050 50  0001 C CNN "Ordercode"
	1    8450 9050
	1    0    0    -1  
$EndComp
Wire Wire Line
	7950 8750 8450 8750
Wire Wire Line
	8450 8750 8450 8900
$Comp
L power:+3.3V #PWR035
U 1 1 5EF847B5
P 7450 7150
F 0 "#PWR035" H 7450 7000 50  0001 C CNN
F 1 "+3.3V" V 7450 7400 50  0000 C CNN
F 2 "" H 7450 7150 50  0001 C CNN
F 3 "" H 7450 7150 50  0001 C CNN
	1    7450 7150
	1    0    0    -1  
$EndComp
Wire Wire Line
	7450 7150 7450 7200
$Comp
L Device:R R11
U 1 1 5EF9EB0F
P 6650 8650
F 0 "R11" V 6443 8650 50  0000 C CNN
F 1 "10k" V 6534 8650 50  0000 C CNN
F 2 "Resistor_SMD:R_0603_1608Metric_Pad1.05x0.95mm_HandSolder" V 6580 8650 50  0001 C CNN
F 3 "https://www.reichelt.de/index.html?ACTION=7&LA=3&OPEN=0&INDEX=0&FILENAME=B300%2FFLD-CRCW-E3_DATA_EN.pdf" H 6650 8650 50  0001 C CNN
F 4 "Reichelt" H 6650 8650 50  0001 C CNN "Distributor"
F 5 "VISHAY" H 6650 8650 50  0001 C CNN "MF"
F 6 "CRCW060310K0FKEA" H 6650 8650 50  0001 C CNN "MPN"
F 7 "VIS CRCW060310K" H 6650 8650 50  0001 C CNN "Ordercode"
	1    6650 8650
	0    1    1    0   
$EndComp
Wire Wire Line
	6950 8650 6800 8650
$Comp
L power:+3.3V #PWR031
U 1 1 5EFAD27E
P 6500 8650
F 0 "#PWR031" H 6500 8500 50  0001 C CNN
F 1 "+3.3V" H 6515 8823 50  0000 C CNN
F 2 "" H 6500 8650 50  0001 C CNN
F 3 "" H 6500 8650 50  0001 C CNN
	1    6500 8650
	0    -1   -1   0   
$EndComp
Wire Wire Line
	6950 8550 6900 8550
Wire Wire Line
	6900 8550 6900 8750
Wire Wire Line
	6950 8750 6900 8750
Connection ~ 6900 8750
Wire Wire Line
	6950 8250 6900 8250
Wire Wire Line
	6900 8250 6900 8550
Connection ~ 6900 8550
Wire Wire Line
	6950 7950 6900 7950
Wire Wire Line
	6950 8050 6900 8050
Wire Wire Line
	6950 8150 6900 8150
Text Label 6900 7950 2    50   ~ 0
SYNC
Text Label 6900 8050 2    50   ~ 0
DATA
Text Label 6900 8150 2    50   ~ 0
BCLK
NoConn ~ 6950 8450
$Comp
L Device:R R12
U 1 1 5F00DFED
P 8850 7800
F 0 "R12" V 8643 7800 50  0000 C CNN
F 1 "470R" V 8734 7800 50  0000 C CNN
F 2 "Resistor_SMD:R_0603_1608Metric_Pad1.05x0.95mm_HandSolder" V 8780 7800 50  0001 C CNN
F 3 "https://www.reichelt.de/index.html?ACTION=7&LA=3&OPEN=0&INDEX=0&FILENAME=B300%2FFLD-CRCW-E3_DATA_EN.pdf" H 8850 7800 50  0001 C CNN
F 4 "Reichelt" H 8850 7800 50  0001 C CNN "Distributor"
F 5 "VISHAY" H 8850 7800 50  0001 C CNN "MF"
F 6 "CRCW0603470RFKEA" H 8850 7800 50  0001 C CNN "MPN"
F 7 "VIS CRCW0603470" H 8850 7800 50  0001 C CNN "Ordercode"
	1    8850 7800
	0    1    1    0   
$EndComp
$Comp
L Device:R R13
U 1 1 5F00F47A
P 8850 8200
F 0 "R13" V 8643 8200 50  0000 C CNN
F 1 "470R" V 8734 8200 50  0000 C CNN
F 2 "Resistor_SMD:R_0603_1608Metric_Pad1.05x0.95mm_HandSolder" V 8780 8200 50  0001 C CNN
F 3 "https://www.reichelt.de/index.html?ACTION=7&LA=3&OPEN=0&INDEX=0&FILENAME=B300%2FFLD-CRCW-E3_DATA_EN.pdf" H 8850 8200 50  0001 C CNN
F 4 "Reichelt" H 8850 8200 50  0001 C CNN "Distributor"
F 5 "VISHAY" H 8850 8200 50  0001 C CNN "MF"
F 6 "CRCW0603470RFKEA" H 8850 8200 50  0001 C CNN "MPN"
F 7 "VIS CRCW0603470" H 8850 8200 50  0001 C CNN "Ordercode"
	1    8850 8200
	0    1    1    0   
$EndComp
$Comp
L Device:C C16
U 1 1 5F0101E3
P 9100 7550
F 0 "C16" H 9215 7596 50  0000 L CNN
F 1 "2.2nF" H 9215 7505 50  0000 L CNN
F 2 "Capacitor_SMD:C_0603_1608Metric_Pad1.05x0.95mm_HandSolder" H 9138 7400 50  0001 C CNN
F 3 "https://www.reichelt.de/index.html?ACTION=7&LA=3&OPEN=0&INDEX=0&FILENAME=A900%2FRND_0603_X7R_ENG_TDS.pdf" H 9100 7550 50  0001 C CNN
F 4 "Reichelt" H 9100 7550 50  0001 C CNN "Distributor"
F 5 "RND COMPONENTS" H 9100 7550 50  0001 C CNN "MF"
F 6 "RND 1500603B222J500NT" H 9100 7550 50  0001 C CNN "MPN"
F 7 "RND 1500603B2222" H 9100 7550 50  0001 C CNN "Ordercode"
	1    9100 7550
	1    0    0    -1  
$EndComp
$Comp
L Device:C C17
U 1 1 5F01161E
P 9100 8450
F 0 "C17" H 9215 8496 50  0000 L CNN
F 1 "2.2nF" H 9215 8405 50  0000 L CNN
F 2 "Capacitor_SMD:C_0603_1608Metric_Pad1.05x0.95mm_HandSolder" H 9138 8300 50  0001 C CNN
F 3 "https://www.reichelt.de/index.html?ACTION=7&LA=3&OPEN=0&INDEX=0&FILENAME=A900%2FRND_0603_X7R_ENG_TDS.pdf" H 9100 8450 50  0001 C CNN
F 4 "Reichelt" H 9100 8450 50  0001 C CNN "Distributor"
F 5 "RND COMPONENTS" H 9100 8450 50  0001 C CNN "MF"
F 6 "RND 1500603B222J500NT" H 9100 8450 50  0001 C CNN "MPN"
F 7 "RND 1500603B2222" H 9100 8450 50  0001 C CNN "Ordercode"
	1    9100 8450
	1    0    0    -1  
$EndComp
$Comp
L Device:R R14
U 1 1 5F012AF4
P 9500 7550
F 0 "R14" H 9570 7596 50  0000 L CNN
F 1 "1k" H 9570 7505 50  0000 L CNN
F 2 "Resistor_SMD:R_0603_1608Metric_Pad1.05x0.95mm_HandSolder" V 9430 7550 50  0001 C CNN
F 3 "https://www.reichelt.de/index.html?ACTION=7&LA=3&OPEN=0&INDEX=0&FILENAME=B300%2FFLD-CRCW-E3_DATA_EN.pdf" H 9500 7550 50  0001 C CNN
F 4 "Reichelt" H 9500 7550 50  0001 C CNN "Distributor"
F 5 "VISHAY" H 9500 7550 50  0001 C CNN "MF"
F 6 "CRCW06031K00FKEA" H 9500 7550 50  0001 C CNN "MPN"
F 7 "VIS CRCW06031K0" H 9500 7550 50  0001 C CNN "Ordercode"
	1    9500 7550
	1    0    0    -1  
$EndComp
$Comp
L Device:R R15
U 1 1 5F013B2A
P 9500 8450
F 0 "R15" H 9570 8496 50  0000 L CNN
F 1 "1k" H 9570 8405 50  0000 L CNN
F 2 "Resistor_SMD:R_0603_1608Metric_Pad1.05x0.95mm_HandSolder" V 9430 8450 50  0001 C CNN
F 3 "https://www.reichelt.de/index.html?ACTION=7&LA=3&OPEN=0&INDEX=0&FILENAME=B300%2FFLD-CRCW-E3_DATA_EN.pdf" H 9500 8450 50  0001 C CNN
F 4 "Reichelt" H 9500 8450 50  0001 C CNN "Distributor"
F 5 "VISHAY" H 9500 8450 50  0001 C CNN "MF"
F 6 "CRCW06031K00FKEA" H 9500 8450 50  0001 C CNN "MPN"
F 7 "VIS CRCW06031K0" H 9500 8450 50  0001 C CNN "Ordercode"
	1    9500 8450
	1    0    0    -1  
$EndComp
$Comp
L Device:C C19
U 1 1 5F014330
P 9850 8200
F 0 "C19" V 9598 8200 50  0000 C CNN
F 1 "470nF" V 9689 8200 50  0000 C CNN
F 2 "Capacitor_SMD:C_0603_1608Metric_Pad1.05x0.95mm_HandSolder" H 9888 8050 50  0001 C CNN
F 3 "https://www.reichelt.de/index.html?ACTION=7&LA=3&OPEN=0&INDEX=0&FILENAME=B300%2FMURATA_MLCC_ENG_TDS.pdf" H 9850 8200 50  0001 C CNN
F 4 "Reichelt" H 9850 8200 50  0001 C CNN "Distributor"
F 5 "MURATA" H 9850 8200 50  0001 C CNN "MF"
F 6 "GRM188R61C474KA12D" H 9850 8200 50  0001 C CNN "MPN"
F 7 "MUR GRM188R61C47" H 9850 8200 50  0001 C CNN "Ordercode"
	1    9850 8200
	0    1    1    0   
$EndComp
$Comp
L Device:C C18
U 1 1 5F015A36
P 9850 7800
F 0 "C18" V 9598 7800 50  0000 C CNN
F 1 "470nF" V 9689 7800 50  0000 C CNN
F 2 "Capacitor_SMD:C_0603_1608Metric_Pad1.05x0.95mm_HandSolder" H 9888 7650 50  0001 C CNN
F 3 "https://www.reichelt.de/index.html?ACTION=7&LA=3&OPEN=0&INDEX=0&FILENAME=B300%2FMURATA_MLCC_ENG_TDS.pdf" H 9850 7800 50  0001 C CNN
F 4 "Reichelt" H 9850 7800 50  0001 C CNN "Distributor"
F 5 "MURATA" H 9850 7800 50  0001 C CNN "MF"
F 6 "GRM188R61C474KA12D" H 9850 7800 50  0001 C CNN "MPN"
F 7 "MUR GRM188R61C47" H 9850 7800 50  0001 C CNN "Ordercode"
	1    9850 7800
	0    1    1    0   
$EndComp
$Comp
L Device:R R22
U 1 1 5F016FFA
P 10250 7800
F 0 "R22" V 10043 7800 50  0000 C CNN
F 1 "150k" V 10134 7800 50  0000 C CNN
F 2 "Resistor_SMD:R_0603_1608Metric_Pad1.05x0.95mm_HandSolder" V 10180 7800 50  0001 C CNN
F 3 "https://www.reichelt.de/index.html?ACTION=7&LA=3&OPEN=0&INDEX=0&FILENAME=B300%2FFLD-CRCW-E3_DATA_EN.pdf" H 10250 7800 50  0001 C CNN
F 4 "Reichelt" H 10250 7800 50  0001 C CNN "Distributor"
F 5 "VISHAY" H 10250 7800 50  0001 C CNN "MF"
F 6 "CRCW0603150KFKEA" H 10250 7800 50  0001 C CNN "MPN"
F 7 "VIS CRCW0603150" H 10250 7800 50  0001 C CNN "Ordercode"
	1    10250 7800
	0    1    1    0   
$EndComp
$Comp
L Device:R R23
U 1 1 5F0178B5
P 10250 8200
F 0 "R23" V 10043 8200 50  0000 C CNN
F 1 "150k" V 10134 8200 50  0000 C CNN
F 2 "Resistor_SMD:R_0603_1608Metric_Pad1.05x0.95mm_HandSolder" V 10180 8200 50  0001 C CNN
F 3 "https://www.reichelt.de/index.html?ACTION=7&LA=3&OPEN=0&INDEX=0&FILENAME=B300%2FFLD-CRCW-E3_DATA_EN.pdf" H 10250 8200 50  0001 C CNN
F 4 "Reichelt" H 10250 8200 50  0001 C CNN "Distributor"
F 5 "VISHAY" H 10250 8200 50  0001 C CNN "MF"
F 6 "CRCW0603150KFKEA" H 10250 8200 50  0001 C CNN "MPN"
F 7 "VIS CRCW0603150" H 10250 8200 50  0001 C CNN "Ordercode"
	1    10250 8200
	0    1    1    0   
$EndComp
Wire Wire Line
	9000 8200 9100 8200
Wire Wire Line
	9000 7800 9100 7800
Wire Wire Line
	10000 7800 10100 7800
Wire Wire Line
	10000 8200 10100 8200
Connection ~ 9100 8200
Wire Wire Line
	9100 8200 9500 8200
Wire Wire Line
	9100 7800 9100 7700
Connection ~ 9100 7800
Wire Wire Line
	9100 7800 9500 7800
Wire Wire Line
	9500 7700 9500 7800
Connection ~ 9500 7800
Wire Wire Line
	9500 7800 9700 7800
Connection ~ 9500 8200
Wire Wire Line
	9500 8200 9700 8200
Wire Wire Line
	9100 8200 9100 8300
Wire Wire Line
	9500 8200 9500 8300
Wire Wire Line
	8650 7950 8650 7800
Wire Wire Line
	8650 7800 8700 7800
Wire Wire Line
	8650 8050 8650 8200
Wire Wire Line
	8650 8200 8700 8200
$Comp
L Device:CP C15
U 1 1 5F0E67FF
P 8900 9050
F 0 "C15" H 9018 9096 50  0000 L CNN
F 1 "10uF" H 9018 9005 50  0000 L CNN
F 2 "Capacitor_SMD:C_1206_3216Metric_Pad1.42x1.75mm_HandSolder" H 8938 8900 50  0001 C CNN
F 3 "https://www.reichelt.de/index.html?ACTION=7&LA=3&OPEN=0&INDEX=0&FILENAME=B300%2FKEM_C0XXX_X7R_DB-EN.pdf" H 8900 9050 50  0001 C CNN
F 4 "Reichelt" H 8900 9050 50  0001 C CNN "Distributor"
F 5 "Kemet" H 8900 9050 50  0001 C CNN "MF"
F 6 "C1206C106K4RACTU" H 8900 9050 50  0001 C CNN "MPN"
F 7 "KEM X7R1206 10U" H 8900 9050 50  0001 C CNN "Ordercode"
	1    8900 9050
	1    0    0    -1  
$EndComp
Wire Wire Line
	8450 8750 8900 8750
Wire Wire Line
	8900 8750 8900 8900
Connection ~ 8450 8750
Wire Wire Line
	8100 2100 8000 2100
Wire Wire Line
	8100 2300 8000 2300
Wire Wire Line
	8100 1900 8000 1900
Text Label 8000 2100 2    50   ~ 0
SYNC
Text Label 8000 1900 2    50   ~ 0
BCLK
Text Label 8000 2300 2    50   ~ 0
DATA
$Comp
L power:+3.3VA #PWR028
U 1 1 5F15BE7A
P 6100 7650
F 0 "#PWR028" H 6100 7500 50  0001 C CNN
F 1 "+3.3VA" V 6100 7900 50  0000 C CNN
F 2 "" H 6100 7650 50  0001 C CNN
F 3 "" H 6100 7650 50  0001 C CNN
	1    6100 7650
	1    0    0    -1  
$EndComp
$Comp
L Device:C C7
U 1 1 5F15D52A
P 6500 7900
F 0 "C7" V 6248 7900 50  0000 C CNN
F 1 "100nF" V 6339 7900 50  0000 C CNN
F 2 "Capacitor_SMD:C_0603_1608Metric_Pad1.05x0.95mm_HandSolder" H 6538 7750 50  0001 C CNN
F 3 "~" H 6500 7900 50  0001 C CNN
F 4 "Reichelt" H 6500 7900 50  0001 C CNN "Distributor"
F 5 "YAGEO" H 6500 7900 50  0001 C CNN "MF"
F 6 "CC0603KRX7R7BB104" H 6500 7900 50  0001 C CNN "MPN"
F 7 "X7R-G0603 100N" H 6500 7900 50  0001 C CNN "Ordercode"
	1    6500 7900
	1    0    0    -1  
$EndComp
$Comp
L Device:CP C6
U 1 1 5F15FC6F
P 6100 7900
F 0 "C6" V 5845 7900 50  0000 C CNN
F 1 "10uF" V 5936 7900 50  0000 C CNN
F 2 "Capacitor_SMD:C_1206_3216Metric_Pad1.42x1.75mm_HandSolder" H 6138 7750 50  0001 C CNN
F 3 "https://www.reichelt.de/index.html?ACTION=7&LA=3&OPEN=0&INDEX=0&FILENAME=B300%2FKEM_C0XXX_X7R_DB-EN.pdf" H 6100 7900 50  0001 C CNN
F 4 "Reichelt" H 6100 7900 50  0001 C CNN "Distributor"
F 5 "Kemet" H 6100 7900 50  0001 C CNN "MF"
F 6 "C1206C106K4RACTU" H 6100 7900 50  0001 C CNN "MPN"
F 7 "KEM X7R1206 10U" H 6100 7900 50  0001 C CNN "Ordercode"
	1    6100 7900
	1    0    0    -1  
$EndComp
Wire Wire Line
	7350 7750 7350 7700
$Comp
L power:GNDA #PWR029
U 1 1 5F207AB2
P 6100 8050
F 0 "#PWR029" H 6100 7800 50  0001 C CNN
F 1 "GNDA" H 6200 7900 50  0000 R CNN
F 2 "" H 6100 8050 50  0001 C CNN
F 3 "" H 6100 8050 50  0001 C CNN
	1    6100 8050
	1    0    0    -1  
$EndComp
$Comp
L power:GNDA #PWR030
U 1 1 5F208BE2
P 6500 8050
F 0 "#PWR030" H 6500 7800 50  0001 C CNN
F 1 "GNDA" H 6600 7900 50  0000 R CNN
F 2 "" H 6500 8050 50  0001 C CNN
F 3 "" H 6500 8050 50  0001 C CNN
	1    6500 8050
	1    0    0    -1  
$EndComp
$Comp
L power:+3.3VA #PWR037
U 1 1 5F208F36
P 7550 7150
F 0 "#PWR037" H 7550 7000 50  0001 C CNN
F 1 "+3.3VA" V 7550 7400 50  0000 C CNN
F 2 "" H 7550 7150 50  0001 C CNN
F 3 "" H 7550 7150 50  0001 C CNN
	1    7550 7150
	1    0    0    -1  
$EndComp
$Comp
L Device:CP C10
U 1 1 5F2094B7
P 7750 7200
F 0 "C10" V 8005 7200 50  0000 C CNN
F 1 "10uF" V 7914 7200 50  0000 C CNN
F 2 "Capacitor_SMD:C_1206_3216Metric_Pad1.42x1.75mm_HandSolder" H 7788 7050 50  0001 C CNN
F 3 "https://www.reichelt.de/index.html?ACTION=7&LA=3&OPEN=0&INDEX=0&FILENAME=B300%2FKEM_C0XXX_X7R_DB-EN.pdf" H 7750 7200 50  0001 C CNN
F 4 "Reichelt" H 7750 7200 50  0001 C CNN "Distributor"
F 5 "Kemet" H 7750 7200 50  0001 C CNN "MF"
F 6 "C1206C106K4RACTU" H 7750 7200 50  0001 C CNN "MPN"
F 7 "KEM X7R1206 10U" H 7750 7200 50  0001 C CNN "Ordercode"
	1    7750 7200
	0    -1   -1   0   
$EndComp
$Comp
L Device:C C11
U 1 1 5F24BE37
P 7750 7600
F 0 "C11" V 7498 7600 50  0000 C CNN
F 1 "100nF" V 7589 7600 50  0000 C CNN
F 2 "Capacitor_SMD:C_0603_1608Metric_Pad1.05x0.95mm_HandSolder" H 7788 7450 50  0001 C CNN
F 3 "~" H 7750 7600 50  0001 C CNN
F 4 "Reichelt" H 7750 7600 50  0001 C CNN "Distributor"
F 5 "YAGEO" H 7750 7600 50  0001 C CNN "MF"
F 6 "CC0603KRX7R7BB104" H 7750 7600 50  0001 C CNN "MPN"
F 7 "X7R-G0603 100N" H 7750 7600 50  0001 C CNN "Ordercode"
	1    7750 7600
	0    1    1    0   
$EndComp
Wire Wire Line
	7550 7200 7600 7200
Connection ~ 7550 7200
Wire Wire Line
	7550 7200 7550 7150
$Comp
L power:GNDA #PWR040
U 1 1 5F2800FD
P 7900 7600
F 0 "#PWR040" H 7900 7350 50  0001 C CNN
F 1 "GNDA" V 7905 7472 50  0000 R CNN
F 2 "" H 7900 7600 50  0001 C CNN
F 3 "" H 7900 7600 50  0001 C CNN
	1    7900 7600
	0    -1   -1   0   
$EndComp
$Comp
L power:GNDA #PWR039
U 1 1 5F280AC8
P 7900 7200
F 0 "#PWR039" H 7900 6950 50  0001 C CNN
F 1 "GNDA" V 7905 7072 50  0000 R CNN
F 2 "" H 7900 7200 50  0001 C CNN
F 3 "" H 7900 7200 50  0001 C CNN
	1    7900 7200
	0    -1   -1   0   
$EndComp
Wire Wire Line
	6900 9450 7450 9450
$Comp
L power:GNDA #PWR038
U 1 1 5F294D5B
P 7550 9050
F 0 "#PWR038" H 7550 8800 50  0001 C CNN
F 1 "GNDA" H 7700 9000 50  0000 C CNN
F 2 "" H 7550 9050 50  0001 C CNN
F 3 "" H 7550 9050 50  0001 C CNN
	1    7550 9050
	1    0    0    -1  
$EndComp
$Comp
L power:GNDA #PWR034
U 1 1 5F295B68
P 7350 9050
F 0 "#PWR034" H 7350 8800 50  0001 C CNN
F 1 "GNDA" H 7200 9000 50  0000 C CNN
F 2 "" H 7350 9050 50  0001 C CNN
F 3 "" H 7350 9050 50  0001 C CNN
	1    7350 9050
	1    0    0    -1  
$EndComp
$Comp
L power:GNDA #PWR045
U 1 1 5F295F65
P 9100 8600
F 0 "#PWR045" H 9100 8350 50  0001 C CNN
F 1 "GNDA" H 9105 8427 50  0000 C CNN
F 2 "" H 9100 8600 50  0001 C CNN
F 3 "" H 9100 8600 50  0001 C CNN
	1    9100 8600
	1    0    0    -1  
$EndComp
$Comp
L power:GNDA #PWR047
U 1 1 5F296717
P 9500 8600
F 0 "#PWR047" H 9500 8350 50  0001 C CNN
F 1 "GNDA" H 9505 8427 50  0000 C CNN
F 2 "" H 9500 8600 50  0001 C CNN
F 3 "" H 9500 8600 50  0001 C CNN
	1    9500 8600
	1    0    0    -1  
$EndComp
$Comp
L power:GNDA #PWR044
U 1 1 5F296AA3
P 9100 7400
F 0 "#PWR044" H 9100 7150 50  0001 C CNN
F 1 "GNDA" H 9105 7227 50  0000 C CNN
F 2 "" H 9100 7400 50  0001 C CNN
F 3 "" H 9100 7400 50  0001 C CNN
	1    9100 7400
	-1   0    0    1   
$EndComp
$Comp
L power:GNDA #PWR046
U 1 1 5F2975AE
P 9500 7400
F 0 "#PWR046" H 9500 7150 50  0001 C CNN
F 1 "GNDA" H 9505 7227 50  0000 C CNN
F 2 "" H 9500 7400 50  0001 C CNN
F 3 "" H 9500 7400 50  0001 C CNN
	1    9500 7400
	-1   0    0    1   
$EndComp
$Comp
L Device:C C9
U 1 1 5F34EF94
P 7250 7600
F 0 "C9" V 6998 7600 50  0000 C CNN
F 1 "100nF" V 7089 7600 50  0000 C CNN
F 2 "Capacitor_SMD:C_0603_1608Metric_Pad1.05x0.95mm_HandSolder" H 7288 7450 50  0001 C CNN
F 3 "~" H 7250 7600 50  0001 C CNN
F 4 "Reichelt" H 7250 7600 50  0001 C CNN "Distributor"
F 5 "YAGEO" H 7250 7600 50  0001 C CNN "MF"
F 6 "CC0603KRX7R7BB104" H 7250 7600 50  0001 C CNN "MPN"
F 7 "X7R-G0603 100N" H 7250 7600 50  0001 C CNN "Ordercode"
	1    7250 7600
	0    1    1    0   
$EndComp
$Comp
L Device:CP C8
U 1 1 5F36066D
P 7250 7200
F 0 "C8" V 6995 7200 50  0000 C CNN
F 1 "10uF" V 7086 7200 50  0000 C CNN
F 2 "Capacitor_SMD:C_1206_3216Metric_Pad1.42x1.75mm_HandSolder" H 7288 7050 50  0001 C CNN
F 3 "https://www.reichelt.de/index.html?ACTION=7&LA=3&OPEN=0&INDEX=0&FILENAME=B300%2FKEM_C0XXX_X7R_DB-EN.pdf" H 7250 7200 50  0001 C CNN
F 4 "Reichelt" H 7250 7200 50  0001 C CNN "Distributor"
F 5 "Kemet" H 7250 7200 50  0001 C CNN "MF"
F 6 "C1206C106K4RACTU" H 7250 7200 50  0001 C CNN "MPN"
F 7 "KEM X7R1206 10U" H 7250 7200 50  0001 C CNN "Ordercode"
	1    7250 7200
	0    1    1    0   
$EndComp
$Comp
L power:GND #PWR033
U 1 1 5F361236
P 7100 7600
F 0 "#PWR033" H 7100 7350 50  0001 C CNN
F 1 "GND" V 7105 7472 50  0000 R CNN
F 2 "" H 7100 7600 50  0001 C CNN
F 3 "" H 7100 7600 50  0001 C CNN
	1    7100 7600
	0    1    1    0   
$EndComp
$Comp
L power:GND #PWR032
U 1 1 5F3A3E2F
P 7100 7200
F 0 "#PWR032" H 7100 6950 50  0001 C CNN
F 1 "GND" V 7105 7072 50  0000 R CNN
F 2 "" H 7100 7200 50  0001 C CNN
F 3 "" H 7100 7200 50  0001 C CNN
	1    7100 7200
	0    1    1    0   
$EndComp
Wire Wire Line
	7400 7200 7450 7200
Connection ~ 7450 7200
Wire Wire Line
	7450 7200 7450 7600
Wire Wire Line
	7400 7600 7450 7600
Wire Wire Line
	6100 7700 6100 7750
Wire Wire Line
	6100 7700 6500 7700
Wire Wire Line
	6500 7750 6500 7700
Connection ~ 6500 7700
Wire Wire Line
	6500 7700 7350 7700
Wire Wire Line
	6100 7650 6100 7700
Connection ~ 6100 7700
Wire Wire Line
	7450 7750 7450 7600
Connection ~ 7450 7600
Wire Wire Line
	7550 7200 7550 7600
Wire Wire Line
	7600 7600 7550 7600
Connection ~ 7550 7600
Wire Wire Line
	7550 7600 7550 7750
Wire Wire Line
	7950 7950 8650 7950
Wire Wire Line
	8650 8050 7950 8050
$Comp
L Amplifier_Audio:PAM8403DR U5
U 1 1 5F538EAD
P 12650 8000
F 0 "U5" H 12650 8100 50  0000 C CNN
F 1 "PAM8403DR" H 12650 8000 50  0000 C CNN
F 2 "Package_SO:SOP-16_4.55x10.3mm_P1.27mm" H 12650 8000 50  0001 L BNN
F 3 "https://www.mouser.de/datasheet/2/115/PAM8403-247318.pdf" H 12650 8000 50  0001 L BNN
F 4 "Mouser" H 12650 8000 50  0001 C CNN "Distributor"
F 5 "Diodes Incorporated" H 12650 8000 50  0001 C CNN "MF"
F 6 "PAM8403DR" H 12650 8000 50  0001 C CNN "MPN"
F 7 "621-PAM8403DR" H 12650 8000 50  0001 C CNN "Ordercode"
	1    12650 8000
	1    0    0    -1  
$EndComp
Wire Wire Line
	10400 7800 10650 7800
Wire Wire Line
	10400 8200 10650 8200
$Comp
L Device:C C21
U 1 1 5F5BD20B
P 12350 7000
F 0 "C21" H 12465 7046 50  0000 L CNN
F 1 "1uF" H 12465 6955 50  0000 L CNN
F 2 "Capacitor_SMD:C_0603_1608Metric_Pad1.05x0.95mm_HandSolder" H 12388 6850 50  0001 C CNN
F 3 "https://www.reichelt.de/index.html?ACTION=7&LA=3&OPEN=0&INDEX=0&FILENAME=B300%2FKEM_C0XXX_X5R_DB-EN.pdf" H 12350 7000 50  0001 C CNN
F 4 "Reichelt" H 12350 7000 50  0001 C CNN "Distributor"
F 5 "Kemet" H 12350 7000 50  0001 C CNN "MF"
F 6 "C0603C105K3PACTU" H 12350 7000 50  0001 C CNN "MPN"
F 7 "KEM X5R0603 1,0U" H 12350 7000 50  0001 C CNN "Ordercode"
	1    12350 7000
	0    1    1    0   
$EndComp
$Comp
L Device:C C23
U 1 1 5F5BEDAF
P 12950 6650
F 0 "C23" H 13065 6696 50  0000 L CNN
F 1 "1uF" H 13065 6605 50  0000 L CNN
F 2 "Capacitor_SMD:C_0603_1608Metric_Pad1.05x0.95mm_HandSolder" H 12988 6500 50  0001 C CNN
F 3 "https://www.reichelt.de/index.html?ACTION=7&LA=3&OPEN=0&INDEX=0&FILENAME=B300%2FKEM_C0XXX_X5R_DB-EN.pdf" H 12950 6650 50  0001 C CNN
F 4 "Reichelt" H 12950 6650 50  0001 C CNN "Distributor"
F 5 "Kemet" H 12950 6650 50  0001 C CNN "MF"
F 6 "C0603C105K3PACTU" H 12950 6650 50  0001 C CNN "MPN"
F 7 "KEM X5R0603 1,0U" H 12950 6650 50  0001 C CNN "Ordercode"
	1    12950 6650
	0    1    1    0   
$EndComp
$Comp
L Device:C C24
U 1 1 5F5BF534
P 12950 7000
F 0 "C24" H 13065 7046 50  0000 L CNN
F 1 "1uF" H 13065 6955 50  0000 L CNN
F 2 "Capacitor_SMD:C_0603_1608Metric_Pad1.05x0.95mm_HandSolder" H 12988 6850 50  0001 C CNN
F 3 "https://www.reichelt.de/index.html?ACTION=7&LA=3&OPEN=0&INDEX=0&FILENAME=B300%2FKEM_C0XXX_X5R_DB-EN.pdf" H 12950 7000 50  0001 C CNN
F 4 "Reichelt" H 12950 7000 50  0001 C CNN "Distributor"
F 5 "Kemet" H 12950 7000 50  0001 C CNN "MF"
F 6 "C0603C105K3PACTU" H 12950 7000 50  0001 C CNN "MPN"
F 7 "KEM X5R0603 1,0U" H 12950 7000 50  0001 C CNN "Ordercode"
	1    12950 7000
	0    1    1    0   
$EndComp
$Comp
L Device:CP C22
U 1 1 5F5C0904
P 12950 6200
F 0 "C22" H 12832 6154 50  0000 R CNN
F 1 "470uF" H 12832 6245 50  0000 R CNN
F 2 "Capacitor_SMD:CP_Elec_6.3x7.7" H 12988 6050 50  0001 C CNN
F 3 "https://www.reichelt.de/index.html?ACTION=7&LA=3&OPEN=0&INDEX=0&FILENAME=B300%2FABA0000C34.pdf" H 12950 6200 50  0001 C CNN
F 4 "Reichelt" H 12950 6200 50  0001 C CNN "Distributor"
F 5 "PANASONIC" H 12950 6200 50  0001 C CNN "MF"
F 6 "EEEFKJ471XSP" H 12950 6200 50  0001 C CNN "MPN"
F 7 "FK 470/6,3 SP" H 12950 6200 50  0001 C CNN "Ordercode"
	1    12950 6200
	0    -1   -1   0   
$EndComp
$Comp
L Device:C C20
U 1 1 5F638A04
P 11850 8550
F 0 "C20" H 11965 8596 50  0000 L CNN
F 1 "100nF" H 11965 8505 50  0000 L CNN
F 2 "Capacitor_SMD:C_0603_1608Metric_Pad1.05x0.95mm_HandSolder" H 11888 8400 50  0001 C CNN
F 3 "~" H 11850 8550 50  0001 C CNN
F 4 "Reichelt" H 11850 8550 50  0001 C CNN "Distributor"
F 5 "YAGEO" H 11850 8550 50  0001 C CNN "MF"
F 6 "CC0603KRX7R7BB104" H 11850 8550 50  0001 C CNN "MPN"
F 7 "X7R-G0603 100N" H 11850 8550 50  0001 C CNN "Ordercode"
	1    11850 8550
	1    0    0    -1  
$EndComp
Wire Wire Line
	12050 8300 11850 8300
Wire Wire Line
	11850 8300 11850 8400
Wire Wire Line
	12650 9000 12650 9050
Wire Wire Line
	12650 9050 12750 9050
Wire Wire Line
	12750 9050 12750 9100
Wire Wire Line
	12750 9050 12750 9000
Connection ~ 12750 9050
$Comp
L power:+5V #PWR053
U 1 1 5F7C3461
P 12650 6150
F 0 "#PWR053" H 12650 6000 50  0001 C CNN
F 1 "+5V" H 12665 6323 50  0000 C CNN
F 2 "" H 12650 6150 50  0001 C CNN
F 3 "" H 12650 6150 50  0001 C CNN
	1    12650 6150
	1    0    0    -1  
$EndComp
Wire Wire Line
	12650 6150 12650 6200
Wire Wire Line
	12800 7000 12750 7000
Connection ~ 12650 7000
Wire Wire Line
	12650 7000 12650 7100
Connection ~ 12650 6650
Wire Wire Line
	12650 6650 12650 7000
Wire Wire Line
	12800 6200 12650 6200
Connection ~ 12650 6200
Wire Wire Line
	12650 6200 12650 6650
Wire Wire Line
	12500 7000 12550 7000
Wire Wire Line
	12550 7000 12550 7100
Wire Wire Line
	12550 7000 12650 7000
Connection ~ 12550 7000
Wire Wire Line
	12650 6650 12800 6650
Wire Wire Line
	12750 7100 12750 7000
Connection ~ 12750 7000
Wire Wire Line
	12750 7000 12650 7000
Wire Wire Line
	12050 7700 11750 7700
Wire Wire Line
	12050 7600 11400 7600
Text Label 11250 7700 2    50   ~ 0
hifiberry_shutdown
Text Label 11250 7600 2    50   ~ 0
hifiberry_mute
Wire Wire Line
	12050 7950 10650 7950
Wire Wire Line
	10650 7950 10650 7800
Wire Wire Line
	12050 8050 10650 8050
Wire Wire Line
	10650 8050 10650 8200
$Comp
L Device:R R24
U 1 1 5FAAC49F
P 11400 7350
F 0 "R24" H 11470 7396 50  0000 L CNN
F 1 "10k" H 11470 7305 50  0000 L CNN
F 2 "Resistor_SMD:R_0603_1608Metric_Pad1.05x0.95mm_HandSolder" V 11330 7350 50  0001 C CNN
F 3 "https://www.reichelt.de/index.html?ACTION=7&LA=3&OPEN=0&INDEX=0&FILENAME=B300%2FFLD-CRCW-E3_DATA_EN.pdf" H 11400 7350 50  0001 C CNN
F 4 "Reichelt" H 11400 7350 50  0001 C CNN "Distributor"
F 5 "VISHAY" H 11400 7350 50  0001 C CNN "MF"
F 6 "CRCW060310K0FKEA" H 11400 7350 50  0001 C CNN "MPN"
F 7 "VIS CRCW060310K" H 11400 7350 50  0001 C CNN "Ordercode"
	1    11400 7350
	1    0    0    -1  
$EndComp
$Comp
L Device:R R25
U 1 1 5FAADB37
P 11750 7350
F 0 "R25" H 11820 7396 50  0000 L CNN
F 1 "10k" H 11820 7305 50  0000 L CNN
F 2 "Resistor_SMD:R_0603_1608Metric_Pad1.05x0.95mm_HandSolder" V 11680 7350 50  0001 C CNN
F 3 "https://www.reichelt.de/index.html?ACTION=7&LA=3&OPEN=0&INDEX=0&FILENAME=B300%2FFLD-CRCW-E3_DATA_EN.pdf" H 11750 7350 50  0001 C CNN
F 4 "Reichelt" H 11750 7350 50  0001 C CNN "Distributor"
F 5 "VISHAY" H 11750 7350 50  0001 C CNN "MF"
F 6 "CRCW060310K0FKEA" H 11750 7350 50  0001 C CNN "MPN"
F 7 "VIS CRCW060310K" H 11750 7350 50  0001 C CNN "Ordercode"
	1    11750 7350
	1    0    0    -1  
$EndComp
Wire Wire Line
	11400 7500 11400 7600
Connection ~ 11400 7600
Wire Wire Line
	11400 7600 11250 7600
Wire Wire Line
	11750 7500 11750 7700
Connection ~ 11750 7700
Wire Wire Line
	11750 7700 11250 7700
$Comp
L power:+5V #PWR048
U 1 1 5FAD6FE3
P 11400 7200
F 0 "#PWR048" H 11400 7050 50  0001 C CNN
F 1 "+5V" H 11415 7373 50  0000 C CNN
F 2 "" H 11400 7200 50  0001 C CNN
F 3 "" H 11400 7200 50  0001 C CNN
	1    11400 7200
	1    0    0    -1  
$EndComp
$Comp
L power:+5V #PWR049
U 1 1 5FAD7D36
P 11750 7200
F 0 "#PWR049" H 11750 7050 50  0001 C CNN
F 1 "+5V" H 11765 7373 50  0000 C CNN
F 2 "" H 11750 7200 50  0001 C CNN
F 3 "" H 11750 7200 50  0001 C CNN
	1    11750 7200
	1    0    0    -1  
$EndComp
$Comp
L Regulator_Linear:TPS76333 U2
U 1 1 5FAD8C67
P 5100 9450
F 0 "U2" H 5100 9792 50  0000 C CNN
F 1 "TPS76333" H 5100 9701 50  0000 C CNN
F 2 "Package_TO_SOT_SMD:SOT-23-5" H 5100 9775 50  0001 C CIN
F 3 "http://www.ti.com/lit/ds/symlink/tps763.pdf" H 5100 9450 50  0001 C CNN
F 4 "Reichelt " H 5100 9450 50  0001 C CNN "Distributor"
F 5 "TEXAS INSTRUMENTS" H 5100 9450 50  0001 C CNN "MF"
F 6 "TPS76333DBVT" H 5100 9450 50  0001 C CNN "MPN"
F 7 "TPS 76333 DBVT" H 5100 9450 50  0001 C CNN "Ordercode"
	1    5100 9450
	1    0    0    -1  
$EndComp
$Comp
L Device:C C5
U 1 1 5FADB74B
P 5550 9550
F 0 "C5" H 5665 9596 50  0000 L CNN
F 1 "4.7uF" H 5665 9505 50  0000 L CNN
F 2 "Capacitor_SMD:C_0603_1608Metric_Pad1.05x0.95mm_HandSolder" H 5588 9400 50  0001 C CNN
F 3 "https://www.reichelt.de/index.html?ACTION=7&LA=3&OPEN=0&INDEX=0&FILENAME=B300%2FKEM_C0XXX_X5R_DB-EN.pdf" H 5550 9550 50  0001 C CNN
F 4 "Reichelt" H 5550 9550 50  0001 C CNN "Distributor"
F 5 "Kemet" H 5550 9550 50  0001 C CNN "MF"
F 6 "C0603C475K8PACTU" H 5550 9550 50  0001 C CNN "MPN"
F 7 "KEM X5R0603 4,7U" H 5550 9550 50  0001 C CNN "Ordercode"
	1    5550 9550
	1    0    0    -1  
$EndComp
$Comp
L power:GNDA #PWR021
U 1 1 5FADBDC5
P 5100 9850
F 0 "#PWR021" H 5100 9600 50  0001 C CNN
F 1 "GNDA" H 5100 9700 50  0000 C CNN
F 2 "" H 5100 9850 50  0001 C CNN
F 3 "" H 5100 9850 50  0001 C CNN
	1    5100 9850
	1    0    0    -1  
$EndComp
Wire Wire Line
	5550 9800 5550 9700
Wire Wire Line
	4300 9700 4300 9800
Wire Wire Line
	5100 9750 5100 9800
Connection ~ 5100 9800
Wire Wire Line
	5100 9800 5550 9800
Wire Wire Line
	5100 9800 5100 9850
$Comp
L Device:C C3
U 1 1 5FADADB4
P 4300 9550
F 0 "C3" H 4415 9596 50  0000 L CNN
F 1 "1uF" H 4415 9505 50  0000 L CNN
F 2 "Capacitor_SMD:C_0603_1608Metric_Pad1.05x0.95mm_HandSolder" H 4338 9400 50  0001 C CNN
F 3 "https://www.reichelt.de/index.html?ACTION=7&LA=3&OPEN=0&INDEX=0&FILENAME=B300%2FKEM_C0XXX_X5R_DB-EN.pdf" H 4300 9550 50  0001 C CNN
F 4 "Reichelt" H 4300 9550 50  0001 C CNN "Distributor"
F 5 "Kemet" H 4300 9550 50  0001 C CNN "MF"
F 6 "C0603C105K3PACTU" H 4300 9550 50  0001 C CNN "MPN"
F 7 "KEM X5R0603 1,0U" H 4300 9550 50  0001 C CNN "Ordercode"
	1    4300 9550
	1    0    0    -1  
$EndComp
Wire Wire Line
	4800 9350 4750 9350
Wire Wire Line
	4300 9350 4300 9400
Wire Wire Line
	5400 9350 5550 9350
Wire Wire Line
	5550 9350 5550 9400
$Comp
L power:+5V #PWR016
U 1 1 5FB76662
P 4300 9300
F 0 "#PWR016" H 4300 9150 50  0001 C CNN
F 1 "+5V" H 4315 9473 50  0000 C CNN
F 2 "" H 4300 9300 50  0001 C CNN
F 3 "" H 4300 9300 50  0001 C CNN
	1    4300 9300
	1    0    0    -1  
$EndComp
Wire Wire Line
	4300 9300 4300 9350
Connection ~ 4300 9350
Wire Wire Line
	4800 9450 4750 9450
Wire Wire Line
	4750 9450 4750 9350
Connection ~ 4750 9350
Wire Wire Line
	4750 9350 4300 9350
$Comp
L power:+3.3VA #PWR024
U 1 1 5FBA4D50
P 5550 9300
F 0 "#PWR024" H 5550 9150 50  0001 C CNN
F 1 "+3.3VA" V 5550 9550 50  0000 C CNN
F 2 "" H 5550 9300 50  0001 C CNN
F 3 "" H 5550 9300 50  0001 C CNN
	1    5550 9300
	1    0    0    -1  
$EndComp
Wire Wire Line
	5550 9300 5550 9350
Connection ~ 5550 9350
$Comp
L power:GND #PWR017
U 1 1 5FBBCB76
P 4300 9850
F 0 "#PWR017" H 4300 9600 50  0001 C CNN
F 1 "GND" H 4300 9700 50  0000 C CNN
F 2 "" H 4300 9850 50  0001 C CNN
F 3 "" H 4300 9850 50  0001 C CNN
	1    4300 9850
	1    0    0    -1  
$EndComp
Wire Wire Line
	4300 9850 4300 9800
Connection ~ 4300 9800
$Comp
L Connector:Screw_Terminal_01x04 J5
U 1 1 5FBD6164
P 13750 7950
F 0 "J5" H 13830 7942 50  0000 L CNN
F 1 "Screw_Terminal_01x04" H 13830 7851 50  0000 L CNN
F 2 "TerminalBlock_Phoenix:TerminalBlock_Phoenix_PT-1,5-4-3.5-H_1x04_P3.50mm_Horizontal" H 13750 7950 50  0001 C CNN
F 3 "https://www.reichelt.de/index.html?ACTION=7&LA=3&OPEN=0&INDEX=0&FILENAME=C100%2FAKL059%23RIA.pdf" H 13750 7950 50  0001 C CNN
F 4 "Reichelt" H 13750 7950 50  0001 C CNN "Distributor"
F 5 "RIA CONNECT" H 13750 7950 50  0001 C CNN "MF"
F 6 "31059102" H 13750 7950 50  0001 C CNN "MPN"
F 7 "AKL 059-02" H 13750 7950 50  0001 C CNN "Ordercode"
	1    13750 7950
	1    0    0    -1  
$EndComp
Wire Wire Line
	13250 8100 13450 8100
Wire Wire Line
	13450 8100 13450 8050
Wire Wire Line
	13450 8050 13550 8050
Wire Wire Line
	13250 8200 13500 8200
Wire Wire Line
	13500 8200 13500 8150
Wire Wire Line
	13500 8150 13550 8150
Wire Wire Line
	13250 7900 13450 7900
Wire Wire Line
	13450 7900 13450 7950
Wire Wire Line
	13450 7950 13550 7950
Wire Wire Line
	13250 7800 13500 7800
Wire Wire Line
	13500 7800 13500 7850
Wire Wire Line
	13500 7850 13550 7850
Wire Notes Line
	4350 3250 4350 7300
Wire Notes Line
	650  3250 4350 3250
Wire Notes Line
	4400 3650 4400 2700
Wire Notes Line
	5950 3650 4400 3650
Wire Notes Line
	4400 2700 5950 2700
Wire Notes Line
	4400 2650 4400 1100
Wire Notes Line
	6550 2650 4400 2650
Wire Notes Line
	4400 1100 6550 1100
Text Label 3800 1800 0    50   ~ 0
pi_shutdown
Text Label 3500 2550 0    50   ~ 0
btn_pi_power
$Comp
L Device:C C4
U 1 1 5F0E16EB
P 4500 2000
F 0 "C4" H 4385 1954 50  0000 R CNN
F 1 "100nF" H 4385 2045 50  0000 R CNN
F 2 "Capacitor_SMD:C_0603_1608Metric_Pad1.05x0.95mm_HandSolder" H 4538 1850 50  0001 C CNN
F 3 "~" H 4500 2000 50  0001 C CNN
F 4 "Reichelt" H 4500 2000 50  0001 C CNN "Distributor"
F 5 "YAGEO" H 4500 2000 50  0001 C CNN "MF"
F 6 "CC0603KRX7R7BB104" H 4500 2000 50  0001 C CNN "MPN"
F 7 "X7R-G0603 100N" H 4500 2000 50  0001 C CNN "Ordercode"
	1    4500 2000
	-1   0    0    1   
$EndComp
Text Notes 4450 1200 0    50   ~ 0
EEPROM
Text Notes 4450 2800 0    50   ~ 0
Display
Wire Notes Line
	4350 3150 650  3150
Wire Notes Line
	4350 1100 4350 3150
Wire Notes Line
	650  1100 4350 1100
Wire Wire Line
	3750 1800 3800 1800
$Comp
L power:GND #PWR014
U 1 1 5EE61C94
P 3750 2200
F 0 "#PWR014" H 3750 1950 50  0001 C CNN
F 1 "GND" H 3755 2027 50  0000 C CNN
F 2 "" H 3750 2200 50  0001 C CNN
F 3 "" H 3750 2200 50  0001 C CNN
	1    3750 2200
	1    0    0    -1  
$EndComp
$Comp
L Device:C C2
U 1 1 5EE60E7E
P 3750 2000
F 0 "C2" H 3865 2046 50  0000 L CNN
F 1 "4.7uF" H 3865 1955 50  0000 L CNN
F 2 "Capacitor_SMD:C_0603_1608Metric_Pad1.05x0.95mm_HandSolder" H 3788 1850 50  0001 C CNN
F 3 "https://www.reichelt.de/index.html?ACTION=7&LA=3&OPEN=0&INDEX=0&FILENAME=B300%2FKEM_C0XXX_X5R_DB-EN.pdf" H 3750 2000 50  0001 C CNN
F 4 "Reichelt" H 3750 2000 50  0001 C CNN "Distributor"
F 5 "Kemet" H 3750 2000 50  0001 C CNN "MF"
F 6 "C0603C475K8PACTU" H 3750 2000 50  0001 C CNN "MPN"
F 7 "KEM X5R0603 4,7U" H 3750 2000 50  0001 C CNN "Ordercode"
	1    3750 2000
	1    0    0    -1  
$EndComp
Wire Wire Line
	4000 1450 4000 1500
Wire Wire Line
	3950 1450 4000 1450
$Comp
L power:GND #PWR015
U 1 1 5EE5E82A
P 4000 1500
F 0 "#PWR015" H 4000 1250 50  0001 C CNN
F 1 "GND" H 4005 1327 50  0000 C CNN
F 2 "" H 4000 1500 50  0001 C CNN
F 3 "" H 4000 1500 50  0001 C CNN
	1    4000 1500
	1    0    0    -1  
$EndComp
$Comp
L Device:Q_NMOS_DGS Q2
U 1 1 5EE207B6
P 3750 1550
F 0 "Q2" V 4092 1550 50  0000 C CNN
F 1 "BSS138" V 4001 1550 50  0000 C CNN
F 2 "Package_TO_SOT_SMD:SOT-23" H 3950 1650 50  0001 C CNN
F 3 "https://www.reichelt.de/index.html?ACTION=7&LA=3&OPEN=0&INDEX=0&FILENAME=A200%2FBSS138-FSC.pdf" H 3750 1550 50  0001 C CNN
F 4 "Reichelt" H 3750 1550 50  0001 C CNN "Distributor"
F 5 "BSS 138 SMD" H 3750 1550 50  0001 C CNN "Ordercode"
	1    3750 1550
	0    -1   -1   0   
$EndComp
NoConn ~ 8100 2200
NoConn ~ 8100 1500
NoConn ~ 8100 1400
NoConn ~ 9700 2800
NoConn ~ 1200 2350
NoConn ~ 1200 2450
NoConn ~ 1200 2550
Wire Wire Line
	1800 2150 1750 2150
$Comp
L Mechanical:MountingHole H1
U 1 1 5F17988F
P 1100 10050
F 0 "H1" H 1200 10096 50  0000 L CNN
F 1 "MountingHole" H 1200 10005 50  0000 L CNN
F 2 "MountingHole:MountingHole_2.7mm_M2.5" H 1100 10050 50  0001 C CNN
F 3 "~" H 1100 10050 50  0001 C CNN
	1    1100 10050
	1    0    0    -1  
$EndComp
$Comp
L Mechanical:MountingHole H2
U 1 1 5F17ACB9
P 1100 10250
F 0 "H2" H 1200 10296 50  0000 L CNN
F 1 "MountingHole" H 1200 10205 50  0000 L CNN
F 2 "MountingHole:MountingHole_2.7mm_M2.5" H 1100 10250 50  0001 C CNN
F 3 "~" H 1100 10250 50  0001 C CNN
	1    1100 10250
	1    0    0    -1  
$EndComp
$Comp
L Mechanical:MountingHole H3
U 1 1 5F1933CC
P 1100 10450
F 0 "H3" H 1200 10496 50  0000 L CNN
F 1 "MountingHole" H 1200 10405 50  0000 L CNN
F 2 "MountingHole:MountingHole_2.7mm_M2.5" H 1100 10450 50  0001 C CNN
F 3 "~" H 1100 10450 50  0001 C CNN
	1    1100 10450
	1    0    0    -1  
$EndComp
$Comp
L Mechanical:MountingHole H4
U 1 1 5F1ABAAB
P 1100 10650
F 0 "H4" H 1200 10696 50  0000 L CNN
F 1 "MountingHole" H 1200 10605 50  0000 L CNN
F 2 "MountingHole:MountingHole_2.7mm_M2.5" H 1100 10650 50  0001 C CNN
F 3 "~" H 1100 10650 50  0001 C CNN
	1    1100 10650
	1    0    0    -1  
$EndComp
$Comp
L Jumper:SolderJumper_2_Open JP2
U 1 1 5F1917CF
P 4700 9800
F 0 "JP2" V 4654 9868 50  0000 L CNN
F 1 "SolderJumper_2_Open" V 4745 9868 50  0000 L CNN
F 2 "Jumper:SolderJumper-2_P1.3mm_Open_RoundedPad1.0x1.5mm" H 4700 9800 50  0001 C CNN
F 3 "~" H 4700 9800 50  0001 C CNN
	1    4700 9800
	-1   0    0    1   
$EndComp
Wire Wire Line
	4850 9800 5100 9800
Wire Wire Line
	4300 9800 4550 9800
$Comp
L power:GNDA #PWR052
U 1 1 5F1FAE60
P 12200 7000
F 0 "#PWR052" H 12200 6750 50  0001 C CNN
F 1 "GNDA" H 12205 6827 50  0000 C CNN
F 2 "" H 12200 7000 50  0001 C CNN
F 3 "" H 12200 7000 50  0001 C CNN
	1    12200 7000
	0    1    1    0   
$EndComp
$Comp
L power:GNDA #PWR051
U 1 1 5F1FB909
P 11850 8700
F 0 "#PWR051" H 11850 8450 50  0001 C CNN
F 1 "GNDA" H 11855 8527 50  0000 C CNN
F 2 "" H 11850 8700 50  0001 C CNN
F 3 "" H 11850 8700 50  0001 C CNN
	1    11850 8700
	1    0    0    -1  
$EndComp
$Comp
L power:GNDA #PWR054
U 1 1 5F1FC593
P 12550 9000
F 0 "#PWR054" H 12550 8750 50  0001 C CNN
F 1 "GNDA" H 12555 8827 50  0000 C CNN
F 2 "" H 12550 9000 50  0001 C CNN
F 3 "" H 12550 9000 50  0001 C CNN
	1    12550 9000
	1    0    0    -1  
$EndComp
$Comp
L power:GND #PWR055
U 1 1 5F1FCB93
P 12750 9100
F 0 "#PWR055" H 12750 8850 50  0001 C CNN
F 1 "GND" H 12755 8927 50  0000 C CNN
F 2 "" H 12750 9100 50  0001 C CNN
F 3 "" H 12750 9100 50  0001 C CNN
	1    12750 9100
	1    0    0    -1  
$EndComp
$Comp
L power:GND #PWR058
U 1 1 5F1FD537
P 13100 7000
F 0 "#PWR058" H 13100 6750 50  0001 C CNN
F 1 "GND" H 13105 6827 50  0000 C CNN
F 2 "" H 13100 7000 50  0001 C CNN
F 3 "" H 13100 7000 50  0001 C CNN
	1    13100 7000
	0    -1   -1   0   
$EndComp
$Comp
L power:GND #PWR057
U 1 1 5F1FE136
P 13100 6650
F 0 "#PWR057" H 13100 6400 50  0001 C CNN
F 1 "GND" H 13105 6477 50  0000 C CNN
F 2 "" H 13100 6650 50  0001 C CNN
F 3 "" H 13100 6650 50  0001 C CNN
	1    13100 6650
	0    -1   -1   0   
$EndComp
$Comp
L power:GND #PWR056
U 1 1 5F1FE56E
P 13100 6200
F 0 "#PWR056" H 13100 5950 50  0001 C CNN
F 1 "GND" H 13105 6027 50  0000 C CNN
F 2 "" H 13100 6200 50  0001 C CNN
F 3 "" H 13100 6200 50  0001 C CNN
	1    13100 6200
	0    -1   -1   0   
$EndComp
$Comp
L power:GNDA #PWR050
U 1 1 5F20183B
P 8050 9200
F 0 "#PWR050" H 8050 8950 50  0001 C CNN
F 1 "GNDA" H 8200 9150 50  0000 C CNN
F 2 "" H 8050 9200 50  0001 C CNN
F 3 "" H 8050 9200 50  0001 C CNN
	1    8050 9200
	1    0    0    -1  
$EndComp
Wire Wire Line
	7450 9450 8450 9450
Wire Wire Line
	8900 9200 8900 9450
Wire Wire Line
	8450 9200 8450 9450
Connection ~ 8450 9450
Wire Wire Line
	8450 9450 8900 9450
Wire Wire Line
	7450 9050 7450 9450
Wire Wire Line
	6900 8750 6900 9450
Wire Wire Line
	9700 2100 9800 2100
Wire Wire Line
	9700 2200 9800 2200
Text Label 9800 2100 0    50   ~ 0
btn_volume_up
Text Label 9800 2200 0    50   ~ 0
btn_volume_down
Text Label 8000 2600 2    50   ~ 0
btn_next
Text Label 8000 2500 2    50   ~ 0
btn_prev
NoConn ~ 8100 2700
NoConn ~ 8100 2800
$Comp
L Mechanical:Fiducial FID3
U 1 1 5F31BC3A
P 1950 10650
F 0 "FID3" H 2035 10696 50  0000 L CNN
F 1 "Fiducial" H 2035 10605 50  0000 L CNN
F 2 "Fiducial:Fiducial_0.5mm_Mask1mm" H 1950 10650 50  0001 C CNN
F 3 "~" H 1950 10650 50  0001 C CNN
	1    1950 10650
	1    0    0    -1  
$EndComp
$Comp
L Mechanical:Fiducial FID2
U 1 1 5F31CBD8
P 1950 10450
F 0 "FID2" H 2035 10496 50  0000 L CNN
F 1 "Fiducial" H 2035 10405 50  0000 L CNN
F 2 "Fiducial:Fiducial_0.5mm_Mask1mm" H 1950 10450 50  0001 C CNN
F 3 "~" H 1950 10450 50  0001 C CNN
	1    1950 10450
	1    0    0    -1  
$EndComp
$Comp
L Mechanical:Fiducial FID1
U 1 1 5F31D032
P 1950 10250
F 0 "FID1" H 2035 10296 50  0000 L CNN
F 1 "Fiducial" H 2035 10205 50  0000 L CNN
F 2 "Fiducial:Fiducial_0.5mm_Mask1mm" H 1950 10250 50  0001 C CNN
F 3 "~" H 1950 10250 50  0001 C CNN
	1    1950 10250
	1    0    0    -1  
$EndComp
$EndSCHEMATC
